<?xml version="1.0" encoding="UTF-8" standalone="no"?>
<svg
   xmlns:dc="http://purl.org/dc/elements/1.1/"
   xmlns:cc="http://creativecommons.org/ns#"
   xmlns:rdf="http://www.w3.org/1999/02/22-rdf-syntax-ns#"
   xmlns:svg="http://www.w3.org/2000/svg"
   xmlns="http://www.w3.org/2000/svg"
   xmlns:sodipodi="http://sodipodi.sourceforge.net/DTD/sodipodi-0.dtd"
   xmlns:inkscape="http://www.inkscape.org/namespaces/inkscape"
   width="1080"
   height="540"
   viewBox="0 0 11.999999 6"
   version="1.1"
   id="svg2"
   inkscape:version="0.48.2 r9819"
   sodipodi:docname="12x12.svg">
  <metadata
     id="metadata11">
    <rdf:RDF>
      <cc:Work
         rdf:about="">
        <dc:format>image/svg+xml</dc:format>
        <dc:type
           rdf:resource="http://purl.org/dc/dcmitype/StillImage" />
        <dc:title />
      </cc:Work>
    </rdf:RDF>
  </metadata>
  <defs
     id="defs9" />
  <sodipodi:namedview
     pagecolor="#ffffff"
     bordercolor="#666666"
     borderopacity="1"
     objecttolerance="10"
     gridtolerance="10"
     guidetolerance="10"
     inkscape:pageopacity="0"
     inkscape:pageshadow="2"
     inkscape:window-width="1680"
     inkscape:window-height="912"
     id="namedview7"
     showgrid="true"
     units="in"
     inkscape:document-units="in"
     inkscape:zoom="1.1687553"
     inkscape:cx="280.31768"
     inkscape:cy="274.49721"
     inkscape:window-x="0"
     inkscape:window-y="0"
     inkscape:window-maximized="1"
     inkscape:current-layer="svg2">
    <inkscape:grid
       type="xygrid"
       id="grid2988"
       empspacing="5"
       visible="true"
       enabled="true"
       snapvisiblegridlinesonly="true"
       spacingx="0.1in"
       units="in"
       spacingy="0.1in"
       color="#ff00ff"
       opacity="0.1254902" />
  </sodipodi:namedview>
  <desc
     id="desc4">Output from Flights of Ideas SVG Sketchup Plugin</desc>
  <path
     id="face0-cut"
     style="fill:none;stroke:#000000;stroke-width:0.001;stroke-linecap:round;stroke-linejoin:round;stroke-miterlimit:4;stroke-dasharray:none"
     d="m 0.4999995,0.2 0,2.7312992 6.9744099,0 0,-2.7312992 -6.9744099,0 m 0.24157,0.7398005 -0.004,0.0034 -0.004,0.00313 -0.005,0.00283 -0.005,0.00253 -0.005,0.00221 -0.005,0.00189 -0.005,0.00156 -0.005,0.00122 -0.005,8.741e-4 -0.005,5.259e-4 -0.005,1.756e-4 -0.005,-1.756e-4 -0.005,-5.259e-4 -0.005,-8.741e-4 -0.005,-0.00122 -0.005,-0.00156 -0.005,-0.00189 -0.005,-0.00221 -0.005,-0.00253 -0.005,-0.00283 -0.004,-0.00313 -0.004,-0.0034 -0.004,-0.00367 -0.004,-0.00392 -0.003,-0.00415 -0.003,-0.00436 -0.003,-0.00456 -0.003,-0.00473 -0.002,-0.00489 -0.002,-0.00502 -0.002,-0.00513 -0.001,-0.00523 -8.8e-4,-0.00529 -5.2e-4,-0.00534 -1.8e-4,-0.00536 1.8e-4,-0.00536 5.2e-4,-0.00534 8.8e-4,-0.00529 0.001,-0.00523 0.002,-0.00513 0.002,-0.00502 0.002,-0.00489 0.003,-0.00473 0.003,-0.00456 0.003,-0.00436 0.003,-0.00415 0.004,-0.00392 0.004,-0.00367 0.004,-0.0034 0.004,-0.00313 0.005,-0.00283 0.005,-0.00253 0.005,-0.00221 0.005,-0.00189 0.005,-0.00156 0.005,-0.00122 0.005,-8.741e-4 0.005,-5.259e-4 0.005,-1.756e-4 0.005,1.756e-4 0.005,5.259e-4 0.005,8.741e-4 0.005,0.00122 0.005,0.00156 0.005,0.00189 0.005,0.00221 0.005,0.00253 0.005,0.00283 0.004,0.00313 0.004,0.0034 0.004,0.00367 0.004,0.00392 0.003,0.00415 0.003,0.00436 0.003,0.00456 0.003,0.00473 0.002,0.00489 0.002,0.00502 0.002,0.00513 0.001,0.00523 8.7e-4,0.00529 5.3e-4,0.00534 1.7e-4,0.00536 -1.7e-4,0.00536 -5.3e-4,0.00534 -8.7e-4,0.00529 -0.001,0.00523 -0.002,0.00513 -0.002,0.00502 -0.002,0.00489 -0.003,0.00473 -0.003,0.00456 -0.003,0.00436 -0.003,0.00415 -0.004,0.00392 -0.004,0.00367 m -0.11205,1.4963319 -0.004,-0.00392 -0.003,-0.00415 -0.003,-0.00436 -0.003,-0.00456 -0.003,-0.00473 -0.002,-0.00489 -0.002,-0.00502 -0.002,-0.00513 -0.001,-0.00523 -8.8e-4,-0.00529 -5.2e-4,-0.00534 -1.8e-4,-0.00536 1.8e-4,-0.00536 5.2e-4,-0.00534 8.8e-4,-0.00529 0.001,-0.00523 0.002,-0.00513 0.002,-0.00502 0.002,-0.00489 0.003,-0.00473 0.003,-0.00456 0.003,-0.00436 0.003,-0.00415 0.004,-0.00392 0.004,-0.00367 0.004,-0.0034 0.004,-0.00313 0.005,-0.00283 0.005,-0.00253 0.005,-0.00221 0.005,-0.00189 0.005,-0.00156 0.005,-0.00122 0.005,-8.741e-4 0.005,-5.259e-4 0.005,-1.756e-4 0.005,1.756e-4 0.005,5.259e-4 0.005,8.741e-4 0.005,0.00122 0.005,0.00156 0.005,0.00189 0.005,0.00221 0.005,0.00253 0.005,0.00283 0.004,0.00313 0.004,0.0034 0.004,0.00367 0.004,0.00392 0.003,0.00415 0.003,0.00436 0.003,0.00456 0.003,0.00473 0.002,0.00489 0.002,0.00502 0.002,0.00513 0.001,0.00523 8.7e-4,0.00529 5.3e-4,0.00534 1.701e-4,0.00536 -1.701e-4,0.00536 -5.3e-4,0.00534 -8.7e-4,0.00529 -0.001,0.00523 -0.002,0.00513 -0.002,0.00502 -0.002,0.00489 -0.003,0.00473 -0.003,0.00456 -0.003,0.00436 -0.003,0.00415 -0.004,0.00392 -0.004,0.00367 -0.004,0.0034 -0.004,0.00313 -0.005,0.00283 -0.005,0.00253 -0.005,0.00221 -0.005,0.00189 -0.005,0.00156 -0.005,0.00122 -0.005,8.741e-4 -0.005,5.259e-4 -0.005,1.756e-4 -0.005,-1.756e-4 -0.005,-5.259e-4 -0.005,-8.741e-4 -0.005,-0.00122 -0.005,-0.00156 -0.005,-0.00189 -0.005,-0.00221 -0.005,-0.00253 -0.005,-0.00283 -0.004,-0.00313 -0.004,-0.0034 -0.004,-0.00367 m 6.5797399,-1.5843408 0.002,-0.00502 0.002,-0.00489 0.003,-0.00473 0.003,-0.00456 0.003,-0.00436 0.003,-0.00415 0.004,-0.00392 0.004,-0.00367 0.004,-0.0034 0.004,-0.00313 0.005,-0.00283 0.005,-0.00253 0.005,-0.00221 0.005,-0.00189 0.005,-0.00156 0.005,-0.00122 0.005,-8.741e-4 0.005,-5.259e-4 0.005,-1.756e-4 0.005,1.756e-4 0.005,5.259e-4 0.005,8.741e-4 0.005,0.00122 0.005,0.00156 0.005,0.00189 0.005,0.00221 0.005,0.00253 0.005,0.00283 0.004,0.00313 0.004,0.0034 0.004,0.00367 0.004,0.00392 0.003,0.00415 0.003,0.00436 0.003,0.00456 0.003,0.00473 0.002,0.00489 0.002,0.00502 0.002,0.00513 10e-4,0.00523 8.8e-4,0.00529 5.2e-4,0.00534 1.8e-4,0.00536 -1.8e-4,0.00536 -5.2e-4,0.00534 -8.8e-4,0.00529 -10e-4,0.00523 -0.002,0.00513 -0.002,0.00502 -0.002,0.00489 -0.003,0.00473 -0.003,0.00456 -0.003,0.00436 -0.003,0.00415 -0.004,0.00392 -0.004,0.00367 -0.004,0.0034 -0.004,0.00313 -0.005,0.00283 -0.005,0.00253 -0.005,0.00221 -0.005,0.00189 -0.005,0.00156 -0.005,0.00122 -0.005,8.741e-4 -0.005,5.259e-4 -0.005,1.756e-4 -0.005,-1.756e-4 -0.005,-5.259e-4 -0.005,-8.741e-4 -0.005,-0.00122 -0.005,-0.00156 -0.005,-0.00189 -0.005,-0.00221 -0.005,-0.00253 -0.005,-0.00283 -0.004,-0.00313 -0.004,-0.0034 -0.004,-0.00367 -0.004,-0.00392 -0.003,-0.00415 -0.003,-0.00436 -0.003,-0.00456 -0.003,-0.00473 -0.002,-0.00489 -0.002,-0.00502 -0.002,-0.00513 -10e-4,-0.00523 -8.7e-4,-0.00529 -5.3e-4,-0.00534 -1.7e-4,-0.00536 1.7e-4,-0.00536 5.3e-4,-0.00534 8.7e-4,-0.00529 10e-4,-0.00523 0.002,-0.00513 m 0.0513,1.4487097 0.005,-0.00156 0.005,-0.00122 0.005,-8.741e-4 0.005,-5.259e-4 0.005,-1.756e-4 0.005,1.756e-4 0.005,5.259e-4 0.005,8.741e-4 0.005,0.00122 0.005,0.00156 0.005,0.00189 0.005,0.00221 0.005,0.00253 0.005,0.00283 0.004,0.00313 0.004,0.0034 0.004,0.00367 0.004,0.00392 0.003,0.00415 0.003,0.00436 0.003,0.00456 0.003,0.00473 0.002,0.00489 0.002,0.00502 0.002,0.00513 0.001,0.00523 8.8e-4,0.00529 5.2e-4,0.00534 1.8e-4,0.00536 -1.8e-4,0.00536 -5.2e-4,0.00534 -8.8e-4,0.00529 -0.001,0.00523 -0.002,0.00513 -0.002,0.00502 -0.002,0.00489 -0.003,0.00473 -0.003,0.00456 -0.003,0.00436 -0.003,0.00415 -0.004,0.00392 -0.004,0.00367 -0.004,0.0034 -0.004,0.00313 -0.005,0.00283 -0.005,0.00253 -0.005,0.00221 -0.005,0.00189 -0.005,0.00156 -0.005,0.00122 -0.005,8.741e-4 -0.005,5.259e-4 -0.005,1.756e-4 -0.005,-1.756e-4 -0.005,-5.259e-4 -0.005,-8.741e-4 -0.005,-0.00122 -0.005,-0.00156 -0.005,-0.00189 -0.005,-0.00221 -0.005,-0.00253 -0.005,-0.00283 -0.004,-0.00313 -0.004,-0.0034 -0.004,-0.00367 -0.004,-0.00392 -0.003,-0.00415 -0.003,-0.00436 -0.003,-0.00456 -0.003,-0.00473 -0.002,-0.00489 -0.002,-0.00502 -0.002,-0.00513 -10e-4,-0.00523 -8.7e-4,-0.00529 -5.3e-4,-0.00534 -1.7e-4,-0.00536 1.7e-4,-0.00536 5.3e-4,-0.00534 8.7e-4,-0.00529 10e-4,-0.00523 0.002,-0.00513 0.002,-0.00502 0.002,-0.00489 0.003,-0.00473 0.003,-0.00456 0.003,-0.00436 0.003,-0.00415 0.004,-0.00392 0.004,-0.00367 0.004,-0.0034 0.004,-0.00313 0.005,-0.00283 0.005,-0.00253 0.005,-0.00221 0.005,-0.00189"
     inkscape:connector-curvature="0" />
  <g
     id="g3860"
     transform="matrix(0,-1,1,0,-0.5000005,6.8312992)">
    <path
       d="m 1.6351496,7.4744094 1.336,0 0,-0.0625 0.164,0 0,0.0625 0.3461496,0 0,-0.6822047 0.25,0 0,-5.11 -0.25,0 0,-0.6822047 -0.3461496,0 0,0.0625 -0.164,0 0,-0.0625 -1.336,0 0,0.0625 -0.164,0 0,-0.0625 L 1.125,1 l 0,0.5 -0.125,0 0,1 0.125,0 0,3.4744094 -0.125,0 0,1 0.125,0 0,0.5 0.3461496,0 0,-0.0625 0.164,0 0,0.0625 m 0.637167,-5.8652098 -0.015251,-0.00252 -0.015054,-0.00351 -0.014792,-0.00449 -0.014467,-0.00544 -0.01408,-0.00638 -0.013633,-0.00729 -0.013127,-0.00816 -0.012565,-0.009 -0.011949,-0.00981 -0.011282,-0.010567 -0.010567,-0.011282 -0.00981,-0.011949 -0.009,-0.012565 -0.00816,-0.013127 -0.00729,-0.013633 -0.00638,-0.01408 -0.00545,-0.014467 -0.00449,-0.014792 -0.00351,-0.015054 -0.00252,-0.015251 -0.00152,-0.015383 -5.058e-4,-0.01545 5.058e-4,-0.01545 0.00152,-0.015383 0.00252,-0.015251 0.00351,-0.015054 0.00449,-0.014792 0.00545,-0.014467 0.00638,-0.01408 0.00729,-0.013633 0.00816,-0.013127 0.009,-0.012565 0.00981,-0.011949 0.010567,-0.011282 0.011282,-0.010567 0.011949,-0.00981 0.012565,-0.009 0.013127,-0.00816 0.013633,-0.00729 0.01408,-0.00638 0.014467,-0.00544 0.014792,-0.00449 0.015054,-0.00351 0.015251,-0.00252 0.015383,-0.00152 0.01545,-5.058e-4 0.01545,5.058e-4 0.015383,0.00152 0.015251,0.00252 0.015054,0.00351 0.014792,0.00449 0.014467,0.00544 0.01408,0.00638 0.013633,0.00729 0.013127,0.00816 0.012565,0.009 0.011949,0.00981 0.011282,0.010567 0.010567,0.011282 0.00981,0.011949 0.009,0.012565 0.00816,0.013127 0.00729,0.013633 0.00638,0.01408 0.00545,0.014467 0.00449,0.014792 0.00351,0.015054 0.00252,0.015251 0.00152,0.015383 5.058e-4,0.01545 -5.058e-4,0.01545 -0.00152,0.015383 -0.00252,0.015251 -0.00351,0.015054 -0.00449,0.014792 -0.00545,0.014467 -0.00638,0.01408 -0.00729,0.013633 -0.00816,0.013127 -0.009,0.012565 -0.00981,0.011949 -0.010567,0.011282 -0.011282,0.010567 -0.011949,0.00981 -0.012565,0.009 -0.013127,0.00816 -0.013633,0.00729 -0.01408,0.00638 -0.014467,0.00544 -0.014792,0.00449 -0.015054,0.00351 -0.015251,0.00252 -0.015383,0.00152 -0.01545,5.058e-4 -0.01545,-5.058e-4 -0.015383,-0.00152 m 0.085515,5.4083723 0.00524,0.00375 0.00498,0.00409 0.0047,0.0044 0.0044,0.0047 0.00409,0.00498 0.00375,0.00524 0.0034,0.00547 0.00304,0.00568 0.00266,0.00587 0.00227,0.00603 0.00187,0.00616 0.00146,0.00627 0.00105,0.00635 6.313e-4,0.00641 2.107e-4,0.00644 -2.107e-4,0.00644 -6.313e-4,0.00641 -0.00105,0.00635 -0.00146,0.00627 -0.00187,0.00616 -0.00227,0.00603 -0.00266,0.00587 -0.00304,0.00568 -0.0034,0.00547 -0.00375,0.00524 -0.00409,0.00498 -0.0044,0.0047 -0.0047,0.0044 -0.00498,0.00409 -0.00524,0.00375 -0.00547,0.0034 -0.00568,0.00304 -0.00587,0.00266 -0.00603,0.00227 -0.00616,0.00187 -0.00627,0.00146 -0.00635,0.00105 -0.00641,6.313e-4 -0.00644,2.107e-4 -0.00644,-2.107e-4 -0.00641,-6.313e-4 -0.00635,-0.00105 -0.00627,-0.00146 -0.00616,-0.00187 -0.00603,-0.00227 -0.00587,-0.00266 -0.00568,-0.00304 -0.00547,-0.0034 -0.00524,-0.00375 -0.00498,-0.00409 -0.0047,-0.0044 -0.0044,-0.0047 -0.00409,-0.00498 -0.00375,-0.00524 -0.0034,-0.00547 -0.00304,-0.00568 -0.00266,-0.00587 -0.00227,-0.00603 -0.00187,-0.00616 -0.00146,-0.00627 -0.00105,-0.00635 -6.313e-4,-0.00641 -2.107e-4,-0.00644 2.107e-4,-0.00644 6.313e-4,-0.00641 0.00105,-0.00635 0.00146,-0.00627 0.00187,-0.00616 0.00227,-0.00603 0.00266,-0.00587 0.00304,-0.00568 0.0034,-0.00547 0.00375,-0.00524 0.00409,-0.00498 0.0044,-0.0047 0.0047,-0.0044 0.00498,-0.00409 0.00524,-0.00375 0.00547,-0.0034 0.00568,-0.00304 0.00587,-0.00266 0.00603,-0.00227 0.00616,-0.00187 0.00627,-0.00146 0.00635,-0.00105 0.00641,-6.313e-4 0.00644,-2.108e-4 0.00644,2.108e-4 0.00641,6.313e-4 0.00635,0.00105 0.00627,0.00146 0.00616,0.00187 0.00603,0.00227 0.00587,0.00266 0.00568,0.00304 0.00547,0.0034 M 1.5,1.875 l 1.6062992,0 0,4.7244094 -1.6062992,0 L 1.5,1.875"
       style="fill:none;stroke:#000000;stroke-width:0.001;stroke-linecap:round;stroke-linejoin:round;stroke-miterlimit:4;stroke-dasharray:none"
       id="face0-cut-8"
       inkscape:connector-curvature="0" />
    <path
       d="m 1.6351496,7.4744094 m 1.336,0 m 0,-0.0625 m 0.164,0 m 0,0.0625 m 0.3461496,0 m 0,-0.6822047 m 0.25,0 m 0,-5.11 m -0.25,0 M 3.4812992,1 M 3.1351496,1 m 0,0.0625 m -0.164,0 m 0,-0.0625 m -1.336,0 m 0,0.0625 m -0.164,0 m 0,-0.0625 M 1.125,1 m 0,0.5 M 1,1.5 m 0,1 m 0.125,0 m 0,3.4744094 m -0.125,0 m 0,1 m 0.125,0 m 0,0.5 m 0.3461496,0 m 0,-0.0625 m 0.164,0 m 0.637167,-5.8027098 m -0.015251,-0.00252 m -0.015054,-0.00351 m -0.014792,-0.00449 m -0.014467,-0.00544 m -0.01408,-0.00638 m -0.013633,-0.00729 m -0.013127,-0.00816 m -0.012565,-0.009 M 2.1473986,1.5526 M 2.1361165,1.5420331 M 2.1255497,1.530751 m -0.00981,-0.011949 m -0.009,-0.012565 M 2.0985797,1.49311 m -0.00729,-0.013633 m -0.00638,-0.01408 M 2.0794597,1.45093 m -0.00449,-0.014792 m -0.0035,-0.015054 M 2.06895,1.405833 M 2.06743,1.39045 M 2.0669291,1.375 M 2.0674349,1.35955 M 2.06895,1.344167 M 2.07147,1.328916 M 2.07498,1.313862 M 2.07947,1.29907 M 2.08492,1.284603 M 2.0913,1.270523 M 2.09859,1.25689 M 2.10675,1.243763 m 0.009,-0.012565 M 2.12556,1.219249 M 2.136127,1.207967 M 2.1473986,1.1974 m 0.011949,-0.00981 m 0.012565,-0.009 m 0.013127,-0.00816 m 0.013633,-0.00729 m 0.01408,-0.00638 M 2.2272196,1.15132 M 2.2420116,1.14683 M 2.2570656,1.14332 M 2.2723166,1.1408 M 2.2877,1.1392853 m 0.01545,-5.058e-4 m 0.01545,5.058e-4 m 0.015383,0.00152 m 0.015251,0.00252 m 0.015054,0.00351 m 0.014792,0.00449 m 0.014467,0.00544 m 0.01408,0.00638 m 0.013633,0.00729 m 0.013127,0.00816 m 0.012565,0.009 m 0.011949,0.00981 m 0.011282,0.010567 m 0.010567,0.011282 m 0.00981,0.011949 m 0.009,0.012565 m 0.00816,0.013127 m 0.00729,0.013633 m 0.00638,0.01408 m 0.00545,0.014467 m 0.00449,0.014792 m 0.00351,0.015054 m 0.00252,0.015251 m 0.00152,0.015383 M 2.5393701,1.375 m -5.058e-4,0.01545 m -0.00152,0.015383 m -0.00252,0.015251 m -0.00351,0.015054 m -0.00449,0.014792 m -0.00545,0.014467 m -0.00638,0.01408 m -0.00729,0.013633 m -0.00816,0.013127 m -0.009,0.012565 m -0.00981,0.011949 M 2.4701673,1.542033 M 2.4589006,1.5526 m -0.011949,0.00981 m -0.012565,0.009 m -0.013127,0.00816 m -0.013633,0.00729 m -0.01408,0.00638 M 2.3790796,1.59868 M 2.3642876,1.60317 M 2.3492336,1.60668 M 2.3339826,1.6092 m -0.015383,0.00152 m -0.01545,5.058e-4 M 2.2877,1.6107147 m 0.070132,5.4068572 m 0.00524,0.00375 m 0.00498,0.00409 m 0.0047,0.0044 m 0.0044,0.0047 m 0.00409,0.00498 m 0.00375,0.00524 m 0.0034,0.00547 m 0.00304,0.00568 m 0.00266,0.00587 m 0.00227,0.00603 m 0.00187,0.00616 m 0.00146,0.00627 m 0.00105,0.00635 m 6.313e-4,0.00641 m 2.107e-4,0.00644 m -2.107e-4,0.00644 m -6.313e-4,0.00641 m -0.00105,0.00635 m -0.00146,0.00627 m -0.00187,0.00616 m -0.00227,0.00603 m -0.00266,0.00587 m -0.00304,0.00568 m -0.0034,0.00547 m -0.00375,0.00524 m -0.00409,0.00498 m -0.0044,0.0047 m -0.0047,0.0044 m -0.00498,0.00409 m -0.00524,0.00375 m -0.00547,0.0034 m -0.00568,0.00304 m -0.00587,0.00266 m -0.00603,0.00227 m -0.00616,0.00187 m -0.00627,0.00146 m -0.00635,0.00105 m -0.00641,6.313e-4 m -0.00644,2.107e-4 m -0.00644,-2.107e-4 m -0.00641,-6.313e-4 m -0.00635,-0.00105 m -0.00627,-0.00146 m -0.00616,-0.00187 m -0.00603,-0.00227 m -0.00587,-0.00266 m -0.00568,-0.00304 m -0.00547,-0.0034 m -0.00524,-0.00375 m -0.00498,-0.00409 m -0.0047,-0.0044 m -0.0044,-0.0047 m -0.00409,-0.00498 m -0.00375,-0.00524 m -0.0034,-0.00547 m -0.00304,-0.00568 m -0.00266,-0.00587 m -0.00227,-0.00603 m -0.00187,-0.00616 m -0.00146,-0.00627 m -0.00105,-0.00635 m -6.313e-4,-0.00641 M 2.20472,7.0994119 m 2.107e-4,-0.00644 m 6.313e-4,-0.00641 m 0.00105,-0.00635 m 0.00146,-0.00627 m 0.00187,-0.00616 m 0.00227,-0.00603 m 0.00266,-0.00587 m 0.00304,-0.00568 m 0.0034,-0.00547 m 0.00375,-0.00524 m 0.00409,-0.00498 m 0.0044,-0.0047 m 0.0047,-0.0044 m 0.00498,-0.00409 m 0.00524,-0.00375 m 0.00547,-0.0034 m 0.00568,-0.00304 m 0.00587,-0.00266 m 0.00603,-0.00227 m 0.00616,-0.00187 m 0.00627,-0.00146 m 0.00635,-0.00105 m 0.00641,-6.313e-4 m 0.00644,-2.108e-4 m 0.00644,2.108e-4 m 0.00641,6.313e-4 m 0.00635,0.00105 m 0.00627,0.00146 m 0.00616,0.00187 m 0.00603,0.00227 m 0.00587,0.00266 m 0.00568,0.00304 M 1.5,1.875 m 1.6062992,0 m 0,4.7244094 m -1.6062992,0"
       style="fill:none;stroke:#ff0000;stroke-width:0.001;stroke-linecap:round;stroke-linejoin:round;stroke-miterlimit:4;stroke-dasharray:none"
       id="face0-interior"
       inkscape:connector-curvature="0" />
    <path
       d="m 1.6351496,7.4744094 m 1.336,0 m 0,-0.0625 m 0.164,0 m 0,0.0625 m 0.3461496,0 m 0,-0.6822047 m 0.25,0 m 0,-5.11 m -0.25,0 M 3.4812992,1 M 3.1351496,1 m 0,0.0625 m -0.164,0 m 0,-0.0625 m -1.336,0 m 0,0.0625 m -0.164,0 m 0,-0.0625 M 1.125,1 m 0,0.5 M 1,1.5 m 0,1 m 0.125,0 m 0,3.4744094 m -0.125,0 m 0,1 m 0.125,0 m 0,0.5 m 0.3461496,0 m 0,-0.0625 m 0.164,0 m 0.637167,-5.8027098 m -0.015251,-0.00252 m -0.015054,-0.00351 m -0.014792,-0.00449 m -0.014467,-0.00544 m -0.01408,-0.00638 m -0.013633,-0.00729 m -0.013127,-0.00816 m -0.012565,-0.009 M 2.1473986,1.5526 M 2.1361165,1.5420331 M 2.1255497,1.530751 m -0.00981,-0.011949 m -0.009,-0.012565 M 2.0985797,1.49311 m -0.00729,-0.013633 m -0.00638,-0.01408 M 2.0794597,1.45093 m -0.00449,-0.014792 m -0.0035,-0.015054 M 2.06895,1.405833 M 2.06743,1.39045 M 2.0669291,1.375 M 2.0674349,1.35955 M 2.06895,1.344167 M 2.07147,1.328916 M 2.07498,1.313862 M 2.07947,1.29907 M 2.08492,1.284603 M 2.0913,1.270523 M 2.09859,1.25689 M 2.10675,1.243763 m 0.009,-0.012565 M 2.12556,1.219249 M 2.136127,1.207967 M 2.1473986,1.1974 m 0.011949,-0.00981 m 0.012565,-0.009 m 0.013127,-0.00816 m 0.013633,-0.00729 m 0.01408,-0.00638 M 2.2272196,1.15132 M 2.2420116,1.14683 M 2.2570656,1.14332 M 2.2723166,1.1408 M 2.2877,1.1392853 m 0.01545,-5.058e-4 m 0.01545,5.058e-4 m 0.015383,0.00152 m 0.015251,0.00252 m 0.015054,0.00351 m 0.014792,0.00449 m 0.014467,0.00544 m 0.01408,0.00638 m 0.013633,0.00729 m 0.013127,0.00816 m 0.012565,0.009 m 0.011949,0.00981 m 0.011282,0.010567 m 0.010567,0.011282 m 0.00981,0.011949 m 0.009,0.012565 m 0.00816,0.013127 m 0.00729,0.013633 m 0.00638,0.01408 m 0.00545,0.014467 m 0.00449,0.014792 m 0.00351,0.015054 m 0.00252,0.015251 m 0.00152,0.015383 M 2.5393701,1.375 m -5.058e-4,0.01545 m -0.00152,0.015383 m -0.00252,0.015251 m -0.00351,0.015054 m -0.00449,0.014792 m -0.00545,0.014467 m -0.00638,0.01408 m -0.00729,0.013633 m -0.00816,0.013127 m -0.009,0.012565 m -0.00981,0.011949 M 2.4701673,1.542033 M 2.4589006,1.5526 m -0.011949,0.00981 m -0.012565,0.009 m -0.013127,0.00816 m -0.013633,0.00729 m -0.01408,0.00638 M 2.3790796,1.59868 M 2.3642876,1.60317 M 2.3492336,1.60668 M 2.3339826,1.6092 m -0.015383,0.00152 m -0.01545,5.058e-4 M 2.2877,1.6107147 m 0.070132,5.4068572 m 0.00524,0.00375 m 0.00498,0.00409 m 0.0047,0.0044 m 0.0044,0.0047 m 0.00409,0.00498 m 0.00375,0.00524 m 0.0034,0.00547 m 0.00304,0.00568 m 0.00266,0.00587 m 0.00227,0.00603 m 0.00187,0.00616 m 0.00146,0.00627 m 0.00105,0.00635 m 6.313e-4,0.00641 m 2.107e-4,0.00644 m -2.107e-4,0.00644 m -6.313e-4,0.00641 m -0.00105,0.00635 m -0.00146,0.00627 m -0.00187,0.00616 m -0.00227,0.00603 m -0.00266,0.00587 m -0.00304,0.00568 m -0.0034,0.00547 m -0.00375,0.00524 m -0.00409,0.00498 m -0.0044,0.0047 m -0.0047,0.0044 m -0.00498,0.00409 m -0.00524,0.00375 m -0.00547,0.0034 m -0.00568,0.00304 m -0.00587,0.00266 m -0.00603,0.00227 m -0.00616,0.00187 m -0.00627,0.00146 m -0.00635,0.00105 m -0.00641,6.313e-4 m -0.00644,2.107e-4 m -0.00644,-2.107e-4 m -0.00641,-6.313e-4 m -0.00635,-0.00105 m -0.00627,-0.00146 m -0.00616,-0.00187 m -0.00603,-0.00227 m -0.00587,-0.00266 m -0.00568,-0.00304 m -0.00547,-0.0034 m -0.00524,-0.00375 m -0.00498,-0.00409 m -0.0047,-0.0044 m -0.0044,-0.0047 m -0.00409,-0.00498 m -0.00375,-0.00524 m -0.0034,-0.00547 m -0.00304,-0.00568 m -0.00266,-0.00587 m -0.00227,-0.00603 m -0.00187,-0.00616 m -0.00146,-0.00627 m -0.00105,-0.00635 m -6.313e-4,-0.00641 M 2.20472,7.0994119 m 2.107e-4,-0.00644 m 6.313e-4,-0.00641 m 0.00105,-0.00635 m 0.00146,-0.00627 m 0.00187,-0.00616 m 0.00227,-0.00603 m 0.00266,-0.00587 m 0.00304,-0.00568 m 0.0034,-0.00547 m 0.00375,-0.00524 m 0.00409,-0.00498 m 0.0044,-0.0047 m 0.0047,-0.0044 m 0.00498,-0.00409 m 0.00524,-0.00375 m 0.00547,-0.0034 m 0.00568,-0.00304 m 0.00587,-0.00266 m 0.00603,-0.00227 m 0.00616,-0.00187 m 0.00627,-0.00146 m 0.00635,-0.00105 m 0.00641,-6.313e-4 m 0.00644,-2.108e-4 m 0.00644,2.108e-4 m 0.00641,6.313e-4 m 0.00635,0.00105 m 0.00627,0.00146 m 0.00616,0.00187 m 0.00603,0.00227 m 0.00587,0.00266 m 0.00568,0.00304 M 1.5,1.875 m 1.6062992,0 m 0,4.7244094 m -1.6062992,0"
       style="fill:none;stroke:#00ff00;stroke-width:0.001;stroke-linecap:round;stroke-linejoin:round;stroke-miterlimit:4;stroke-dasharray:none"
       id="path3852"
       inkscape:connector-curvature="0" />
  </g>
</svg>
