<?xml version="1.0" encoding="UTF-8" standalone="no"?>
<svg
   xmlns:dc="http://purl.org/dc/elements/1.1/"
   xmlns:cc="http://creativecommons.org/ns#"
   xmlns:rdf="http://www.w3.org/1999/02/22-rdf-syntax-ns#"
   xmlns:svg="http://www.w3.org/2000/svg"
   xmlns="http://www.w3.org/2000/svg"
   xmlns:sodipodi="http://sodipodi.sourceforge.net/DTD/sodipodi-0.dtd"
   xmlns:inkscape="http://www.inkscape.org/namespaces/inkscape"
   width="1080"
   height="1080"
   viewBox="0 0 11.999999 12"
   version="1.1"
   id="svg2"
   inkscape:version="0.48.2 r9819"
   sodipodi:docname="Back.svg">
  <metadata
     id="metadata14">
    <rdf:RDF>
      <cc:Work
         rdf:about="">
        <dc:format>image/svg+xml</dc:format>
        <dc:type
           rdf:resource="http://purl.org/dc/dcmitype/StillImage" />
        <dc:title></dc:title>
      </cc:Work>
    </rdf:RDF>
  </metadata>
  <defs
     id="defs12" />
  <sodipodi:namedview
     pagecolor="#ffffff"
     bordercolor="#666666"
     borderopacity="1"
     objecttolerance="10"
     gridtolerance="10"
     guidetolerance="10"
     inkscape:pageopacity="0"
     inkscape:pageshadow="2"
     inkscape:window-width="1680"
     inkscape:window-height="912"
     id="namedview10"
     showgrid="true"
     inkscape:document-units="in"
     units="in"
     inkscape:zoom="0.85011652"
     inkscape:cx="490.2517"
     inkscape:cy="284.46342"
     inkscape:window-x="0"
     inkscape:window-y="0"
     inkscape:window-maximized="1"
     inkscape:current-layer="svg2">
    <inkscape:grid
       type="xygrid"
       id="grid2991"
       empspacing="5"
       visible="true"
       enabled="true"
       snapvisiblegridlinesonly="true"
       empcolor="#0000ff"
       empopacity="0.25098039"
       color="#ff00ff"
       opacity="0.1254902"
       units="in"
       spacingx="0.1in"
       spacingy="0.1in" />
  </sodipodi:namedview>
  <desc
     id="desc4">Output from Flights of Ideas SVG Sketchup Plugin</desc>
  <path
     id="face0-cut"
     style="fill:none;stroke:#000000;stroke-width:0.001;stroke-linecap:round;stroke-linejoin:round;stroke-miterlimit:4;stroke-dasharray:none"
     d="m 1.624999,7.0994099 0,0.125 0.3562992,0 0,-0.125 0.5,0 0,0.125 0.5,0 0,-0.625 0.125,0 0,-0.4999999 -0.125,0 0,-0.5 0.125,0 0,-0.5 -0.125,0 0,-0.5 0.125,0 0,-0.5 -0.125,0 0,-0.47441 0.125,0 0,-0.5 -0.125,0 0,-0.5 0.125,0 0,-0.5 -0.125,0 0,-0.5 0.125,0 0,-0.5 -0.125,0 0,-0.625 -0.5,0 0,0.125 -0.5,0 0,-0.125 -0.3562992,0 0,0.125 -0.5,0 0,-0.125 -0.5,0 0,0.625 -0.125,0 0,0.5 0.125,0 0,0.5 -0.125,0 0,0.5 0.125,0 0,0.5 -0.125,0 0,0.5 0.125,0 0,0.47441 -0.125,0 0,0.5 0.125,0 0,0.5 -0.125,0 0,0.5 0.125,0 0,0.5 -0.125,0 0,0.4999999 0.125,0 0,0.625 0.5,0 0,-0.125 0.5,0 M 1.247276,3.92846 l -0.00486,0.016 -0.0059,0.0157 -0.00691,0.0153 -0.0079,0.0148 -0.00885,0.0142 -0.00976,0.0136 -0.010628,0.0129 -0.011452,0.0122 -0.012227,0.0115 -0.01295,0.0106 -0.013617,0.01 -0.014226,0.009 -0.014774,0.008 -0.015259,0.007 -0.015678,0.006 -0.016031,0.005 -0.016315,0.004 -0.016528,0.003 L 1.01674,4.11926 0.999999,4.11982 0.983256,4.11927 0.966585,4.11727 0.950057,4.11427 0.933742,4.11027 0.917711,4.10527 0.902033,4.09927 0.886774,4.09227 0.872,4.08427 0.857774,4.07527 0.844157,4.06527 0.831207,4.05467 0.81898,4.04327 0.807528,4.03107 0.7969,4.01817 0.78714,4.00457 0.77829,3.99037 0.77039,3.97557 0.76348,3.96027 0.75758,3.94457 0.75272,3.92857 0.74892,3.91227 0.74619,3.89577 0.74455,3.87907 0.7440019,3.86237 0.74455,3.84557 l 0.00164,-0.0167 0.00273,-0.0165 0.0038,-0.0163 0.00486,-0.016 0.0059,-0.0157 0.00691,-0.0153 0.0079,-0.0148 0.00885,-0.0142 0.00976,-0.0136 0.010628,-0.013 0.011452,-0.0122 0.012227,-0.0115 0.01295,-0.0106 0.013617,-0.01 0.014226,-0.009 0.014774,-0.008 0.015259,-0.007 0.015678,-0.006 0.016031,-0.005 0.016315,-0.004 0.016528,-0.003 0.016671,-0.002 0.016743,-5.5e-4 0.016743,5.4e-4 0.016671,0.002 0.016528,0.003 0.016315,0.004 0.016031,0.005 0.015678,0.006 0.015259,0.007 0.014774,0.008 0.014226,0.009 0.013617,0.01 0.01295,0.0106 0.012227,0.0115 0.011452,0.0122 0.010628,0.013 0.00976,0.0136 0.00885,0.0142 0.0079,0.0148 0.00691,0.0153 0.0059,0.0157 0.00486,0.016 0.0038,0.0163 0.00273,0.0165 0.00164,0.0167 5.481e-4,0.0167 -5.481e-4,0.0168 -0.00164,0.0167 -0.00273,0.0165 -0.0038,0.0163 m 0.557744,-0.0377 -0.0014,-0.0143 0.0014,-0.0429 0.00233,-0.0141 0.00325,-0.0139 0.00416,-0.0137 0.00504,-0.0134 0.00591,-0.013 0.00675,-0.0126 0.00756,-0.0122 0.00834,-0.0116 0.00908,-0.0111 0.00979,-0.0104 0.010448,-0.01 0.011065,-0.009 0.011636,-0.008 0.012156,-0.008 0.012624,-0.007 0.013039,-0.006 0.013397,-0.005 0.013698,-0.004 0.013941,-0.003 0.014123,-0.002 0.014246,-10e-4 0.014307,-4.7e-4 0.014307,4.7e-4 0.014246,10e-4 0.014123,0.002 0.013941,0.003 0.013698,0.004 0.013397,0.005 0.013039,0.006 0.012624,0.007 0.012156,0.008 0.011636,0.008 0.011065,0.009 0.010448,0.01 0.00979,0.0104 0.00908,0.0111 0.00834,0.0116 0.00756,0.0122 0.00675,0.0126 0.00591,0.013 0.00504,0.0134 0.00416,0.0137 0.00325,0.0139 0.00233,0.0141 0.0014,0.0142 4.684e-4,0.0143 -4.684e-4,0.0143 -0.0014,0.0143 -0.00233,0.0141 -0.00325,0.0139 -0.00416,0.0137 -0.00504,0.0134 -0.00591,0.013 -0.00675,0.0126 -0.00756,0.0122 -0.00834,0.0116 -0.00908,0.0111 -0.00979,0.0104 -0.010448,0.01 -0.011065,0.009 -0.011636,0.008 -0.012156,0.008 -0.012624,0.007 -0.013039,0.006 -0.013397,0.005 -0.013698,0.004 -0.013941,0.003 -0.014123,0.002 -0.014246,0.001 -0.014307,4.7e-4 -0.014307,-4.7e-4 -0.014246,-0.001 -0.014123,-0.002 -0.013941,-0.003 -0.013698,-0.004 -0.013397,-0.005 -0.013039,-0.006 -0.012624,-0.007 -0.012156,-0.008 -0.011636,-0.008 -0.011065,-0.009 -0.010448,-0.01 -0.00979,-0.0104 -0.00908,-0.0111 -0.00834,-0.0116 -0.00756,-0.0122 -0.00675,-0.0126 -0.00591,-0.013 -0.00504,-0.0134 -0.00416,-0.0137 -0.00325,-0.0139 -0.00233,-0.0141"
     inkscape:connector-curvature="0" />
  <path
     id="face0-interior"
     style="fill:none;stroke:#ff0000;stroke-width:0.001;stroke-linecap:round;stroke-linejoin:round;stroke-miterlimit:4;stroke-dasharray:none"
     d="m 2.125,10.87497 m 0,0.125 m 0.3562992,0 m 0,-0.125 m 0.5,0 m 0,0.125 m 0.5,0 m 0,-0.625 m 0.125,0 m 0,-0.4999999 m -0.125,0 m 0,-0.5 m 0.125,0 m 0,-0.5 m -0.125,0 m 0,-0.5 m 0.125,0 m 0,-0.5 m -0.125,0 m 0,-0.47441 m 0.125,0 m 0,-0.5 m -0.125,0 m 0,-0.5 m 0.125,0 m 0,-0.5 m -0.125,0 m 0,-0.5 m 0.125,0 m 0,-0.5 m -0.125,0 m 0,-0.625 m -0.5,0 m 0,0.125 m -0.5,0 m 0,-0.125 m -0.3562992,0 m 0,0.125 m -0.5,0 m 0,-0.125 m -0.5,0 m 0,0.625 m -0.125,0 m 0,0.5 m 0.125,0 m 0,0.5 m -0.125,0 m 0,0.5 m 0.125,0 m 0,0.5 m -0.125,0 m 0,0.5 m 0.125,0 m 0,0.47441 m -0.125,0 m 0,0.5 m 0.125,0 m 0,0.5 m -0.125,0 m 0,0.5 m 0.125,0 m 0,0.5 m -0.125,0 M 1,10.37497 m 0.125,0 m 0,0.625 m 0.5,0 m 0,-0.125 M 1.747277,7.7040201 m -0.00486,0.016 m -0.0059,0.0157 m -0.00691,0.0153 m -0.0079,0.0148 m -0.00885,0.0142 m -0.00976,0.0136 m -0.010628,0.0129 m -0.011452,0.0122 m -0.012227,0.0115 m -0.01295,0.0106 m -0.013617,0.01 m -0.014223,0.009 m -0.014774,0.008 m -0.015259,0.007 m -0.015678,0.006 m -0.016031,0.005 m -0.016315,0.004 m -0.016528,0.003 m -0.016671,0.002 M 1.5,7.8937701 m -0.016743,-5.5e-4 m -0.016671,-0.002 m -0.016528,-0.003 m -0.016315,-0.004 m -0.016031,-0.005 m -0.015678,-0.006 m -0.015259,-0.007 M 1.372,7.8594701 m -0.014226,-0.009 m -0.013617,-0.01 m -0.01295,-0.0106 m -0.012226,-0.0114 m -0.011452,-0.0122 m -0.010628,-0.0129 m -0.00976,-0.0136 m -0.00885,-0.0142 m -0.0079,-0.0148 m -0.00691,-0.0153 m -0.0059,-0.0157 m -0.00486,-0.016 m -0.0038,-0.0163 m -0.00273,-0.0165 m -0.00164,-0.0167 M 1.244,7.6377701 m 5.481e-4,-0.0168 m 0.00164,-0.0167 m 0.00273,-0.0165 m 0.0038,-0.0163 m 0.00486,-0.016 m 0.0059,-0.0157 m 0.00691,-0.0153 m 0.0079,-0.0148 m 0.00885,-0.0142 m 0.00976,-0.0136 m 0.010628,-0.013 m 0.011452,-0.0122 m 0.012227,-0.0115 m 0.01295,-0.0106 m 0.013617,-0.01 m 0.014228,-0.009 m 0.014774,-0.008 m 0.015259,-0.007 m 0.015678,-0.006 m 0.016031,-0.005 m 0.016315,-0.004 m 0.016528,-0.003 m 0.016671,-0.002 M 1.5,7.3817701 m 0.016743,5.4e-4 m 0.016671,0.002 m 0.016528,0.003 m 0.016315,0.004 m 0.016031,0.005 m 0.015678,0.006 m 0.015259,0.007 m 0.014774,0.008 m 0.014226,0.009 m 0.013617,0.01 m 0.01295,0.0106 m 0.012227,0.0115 m 0.011452,0.0122 m 0.010628,0.013 m 0.00976,0.0136 m 0.00885,0.0142 m 0.0079,0.0148 m 0.00691,0.0153 m 0.0059,0.0157 m 0.00486,0.016 m 0.0038,0.0163 m 0.00273,0.0165 m 0.00164,0.0167 m 5.51e-4,0.0168 m -5.481e-4,0.0167 m -0.00164,0.0167 m -0.00273,0.0165 m 0.55394,-0.0214 m -0.0014,-0.0143 m 0.0014,-0.0429 m 0.00233,-0.0141 m 0.00325,-0.0139 m 0.00416,-0.0137 m 0.00504,-0.0134 m 0.00591,-0.013 m 0.00675,-0.0126 m 0.00756,-0.0122 m 0.00834,-0.0116 m 0.00908,-0.0111 m 0.00979,-0.0104 m 0.010448,-0.01 m 0.011065,-0.009 m 0.011636,-0.008 m 0.012156,-0.008 m 0.012624,-0.007 m 0.013039,-0.006 m 0.013397,-0.005 m 0.013698,-0.004 m 0.013941,-0.003 m 0.014123,-0.002 m 0.014246,-0.001 m 0.014307,-4.7e-4 m 0.014307,4.7e-4 m 0.014246,0.001 m 0.014123,0.002 m 0.013941,0.003 m 0.013698,0.004 m 0.013397,0.005 m 0.013039,0.006 m 0.012624,0.007 m 0.012156,0.008 m 0.011636,0.008 m 0.011065,0.009 m 0.010448,0.01 m 0.00979,0.0104 m 0.00908,0.0111 m 0.00834,0.0116 m 0.00756,0.0122 m 0.00675,0.0126 m 0.00591,0.013 m 0.00504,0.0134 m 0.00416,0.0137 m 0.00325,0.0139 m 0.00233,0.0141 m 0.0014,0.0142 m 4.684e-4,0.0143 m -4.684e-4,0.0143 m -0.0014,0.0143 m -0.00233,0.0141 m -0.00325,0.0139 m -0.00416,0.0137 m -0.00504,0.0134 m -0.00591,0.013 m -0.00675,0.0126 m -0.00756,0.0122 m -0.00834,0.0116 m -0.00908,0.0111 m -0.00979,0.0104 m -0.010448,0.01 m -0.011065,0.009 m -0.011636,0.008 m -0.012156,0.008 m -0.012624,0.007 m -0.013039,0.006 m -0.013397,0.005 m -0.013698,0.004 m -0.013941,0.003 m -0.014123,0.002 m -0.014246,0.001 m -0.014307,4.6e-4 m -0.014307,-4.6e-4 m -0.014246,-0.001 m -0.014123,-0.002 m -0.013941,-0.003 m -0.013698,-0.004 m -0.013397,-0.005 m -0.013039,-0.006 m -0.012624,-0.007 m -0.012156,-0.008 m -0.011636,-0.008 m -0.011065,-0.009 m -0.01046,-0.01 m -0.00979,-0.0104 m -0.00908,-0.0111 m -0.00834,-0.0116 m -0.00756,-0.0122 M 2.3257,7.7345201 m -0.00591,-0.013 m -0.00504,-0.0134 m -0.00416,-0.0137 m -0.00325,-0.0139"
     inkscape:connector-curvature="0" />
  <path
     id="path8"
     style="fill:none;stroke:#00ff00;stroke-width:0.001;stroke-linecap:round;stroke-linejoin:round;stroke-miterlimit:4;stroke-dasharray:none"
     d="m 2.125,10.87497 m 0,0.125 m 0.3562992,0 m 0,-0.125 m 0.5,0 m 0,0.125 m 0.5,0 m 0,-0.625 m 0.125,0 m 0,-0.4999999 m -0.125,0 m 0,-0.5 m 0.125,0 m 0,-0.5 m -0.125,0 m 0,-0.5 m 0.125,0 m 0,-0.5 m -0.125,0 m 0,-0.47441 m 0.125,0 m 0,-0.5 m -0.125,0 m 0,-0.5 m 0.125,0 m 0,-0.5 m -0.125,0 m 0,-0.5 m 0.125,0 m 0,-0.5 m -0.125,0 m 0,-0.625 m -0.5,0 m 0,0.125 m -0.5,0 m 0,-0.125 m -0.3562992,0 m 0,0.125 m -0.5,0 m 0,-0.125 m -0.5,0 m 0,0.625 m -0.125,0 m 0,0.5 m 0.125,0 m 0,0.5 m -0.125,0 m 0,0.5 m 0.125,0 m 0,0.5 m -0.125,0 m 0,0.5 m 0.125,0 m 0,0.47441 m -0.125,0 m 0,0.5 m 0.125,0 m 0,0.5 m -0.125,0 m 0,0.5 m 0.125,0 m 0,0.5 m -0.125,0 M 1,10.37497 m 0.125,0 m 0,0.625 m 0.5,0 m 0,-0.125 M 1.747277,7.7040201 m -0.00486,0.016 m -0.0059,0.0157 m -0.00691,0.0153 m -0.0079,0.0148 m -0.00885,0.0142 m -0.00976,0.0136 m -0.010628,0.0129 m -0.011452,0.0122 m -0.012227,0.0115 m -0.01295,0.0106 m -0.013617,0.01 m -0.014223,0.009 m -0.014774,0.008 m -0.015259,0.007 m -0.015678,0.006 m -0.016031,0.005 m -0.016315,0.004 m -0.016528,0.003 m -0.016671,0.002 M 1.5,7.8937701 m -0.016743,-5.5e-4 m -0.016671,-0.002 m -0.016528,-0.003 m -0.016315,-0.004 m -0.016031,-0.005 m -0.015678,-0.006 m -0.015259,-0.007 M 1.372,7.8594701 m -0.014226,-0.009 m -0.013617,-0.01 m -0.01295,-0.0106 m -0.012226,-0.0114 m -0.011452,-0.0122 m -0.010628,-0.0129 m -0.00976,-0.0136 m -0.00885,-0.0142 m -0.0079,-0.0148 m -0.00691,-0.0153 m -0.0059,-0.0157 m -0.00486,-0.016 m -0.0038,-0.0163 m -0.00273,-0.0165 m -0.00164,-0.0167 M 1.244,7.6377701 m 5.481e-4,-0.0168 m 0.00164,-0.0167 m 0.00273,-0.0165 m 0.0038,-0.0163 m 0.00486,-0.016 m 0.0059,-0.0157 m 0.00691,-0.0153 m 0.0079,-0.0148 m 0.00885,-0.0142 m 0.00976,-0.0136 m 0.010628,-0.013 m 0.011452,-0.0122 m 0.012227,-0.0115 m 0.01295,-0.0106 m 0.013617,-0.01 m 0.014228,-0.009 m 0.014774,-0.008 m 0.015259,-0.007 m 0.015678,-0.006 m 0.016031,-0.005 m 0.016315,-0.004 m 0.016528,-0.003 m 0.016671,-0.002 M 1.5,7.3817701 m 0.016743,5.4e-4 m 0.016671,0.002 m 0.016528,0.003 m 0.016315,0.004 m 0.016031,0.005 m 0.015678,0.006 m 0.015259,0.007 m 0.014774,0.008 m 0.014226,0.009 m 0.013617,0.01 m 0.01295,0.0106 m 0.012227,0.0115 m 0.011452,0.0122 m 0.010628,0.013 m 0.00976,0.0136 m 0.00885,0.0142 m 0.0079,0.0148 m 0.00691,0.0153 m 0.0059,0.0157 m 0.00486,0.016 m 0.0038,0.0163 m 0.00273,0.0165 m 0.00164,0.0167 m 5.51e-4,0.0168 m -5.481e-4,0.0167 m -0.00164,0.0167 m -0.00273,0.0165 m 0.55394,-0.0214 m -0.0014,-0.0143 m 0.0014,-0.0429 m 0.00233,-0.0141 m 0.00325,-0.0139 m 0.00416,-0.0137 m 0.00504,-0.0134 m 0.00591,-0.013 m 0.00675,-0.0126 m 0.00756,-0.0122 m 0.00834,-0.0116 m 0.00908,-0.0111 m 0.00979,-0.0104 m 0.010448,-0.01 m 0.011065,-0.009 m 0.011636,-0.008 m 0.012156,-0.008 m 0.012624,-0.007 m 0.013039,-0.006 m 0.013397,-0.005 m 0.013698,-0.004 m 0.013941,-0.003 m 0.014123,-0.002 m 0.014246,-0.001 m 0.014307,-4.7e-4 m 0.014307,4.7e-4 m 0.014246,0.001 m 0.014123,0.002 m 0.013941,0.003 m 0.013698,0.004 m 0.013397,0.005 m 0.013039,0.006 m 0.012624,0.007 m 0.012156,0.008 m 0.011636,0.008 m 0.011065,0.009 m 0.010448,0.01 m 0.00979,0.0104 m 0.00908,0.0111 m 0.00834,0.0116 m 0.00756,0.0122 m 0.00675,0.0126 m 0.00591,0.013 m 0.00504,0.0134 m 0.00416,0.0137 m 0.00325,0.0139 m 0.00233,0.0141 m 0.0014,0.0142 m 4.684e-4,0.0143 m -4.684e-4,0.0143 m -0.0014,0.0143 m -0.00233,0.0141 m -0.00325,0.0139 m -0.00416,0.0137 m -0.00504,0.0134 m -0.00591,0.013 m -0.00675,0.0126 m -0.00756,0.0122 m -0.00834,0.0116 m -0.00908,0.0111 m -0.00979,0.0104 m -0.010448,0.01 m -0.011065,0.009 m -0.011636,0.008 m -0.012156,0.008 m -0.012624,0.007 m -0.013039,0.006 m -0.013397,0.005 m -0.013698,0.004 m -0.013941,0.003 m -0.014123,0.002 m -0.014246,0.001 m -0.014307,4.6e-4 m -0.014307,-4.6e-4 m -0.014246,-0.001 m -0.014123,-0.002 m -0.013941,-0.003 m -0.013698,-0.004 m -0.013397,-0.005 m -0.013039,-0.006 m -0.012624,-0.007 m -0.012156,-0.008 m -0.011636,-0.008 m -0.011065,-0.009 m -0.01046,-0.01 m -0.00979,-0.0104 m -0.00908,-0.0111 m -0.00834,-0.0116 m -0.00756,-0.0122 M 2.3257,7.7345201 m -0.00591,-0.013 m -0.00504,-0.0134 m -0.00416,-0.0137 m -0.00325,-0.0139"
     inkscape:connector-curvature="0" />
  <g
     id="g3857"
     transform="translate(2.499999,-0.5)">
    <path
       d="m 1,2.625 0,3.4744094 0.125,0 0,1 -0.125,0 0,0.625 0.75,0 0,-0.125 0.5,0 0,0.125 0.5,0 0,-0.125 0.5,0 0,0.125 0.625,0 0,-0.625 -0.125,0 0,-0.5 0.125,0 0,-0.5 -0.125,0 0,-0.5 0.125,0 0,-0.5 -0.125,0 0,-0.5 0.125,0 0,-0.4744094 -0.125,0 0,-0.5 0.125,0 0,-0.5 -0.125,0 0,-0.5 0.125,0 0,-0.5 -0.125,0 0,-0.5 0.125,0 0,-0.625 -0.625,0 0,0.125 -0.5,0 0,-0.125 -0.5,0 0,0.125 -0.5,0 L 1.75,1 1,1 l 0,0.625 0.125,0 0,1 -0.125,0"
       style="fill:none;stroke:#000000;stroke-width:0.001;stroke-linecap:round;stroke-linejoin:round;stroke-miterlimit:4;stroke-dasharray:none"
       id="face0-cut-9"
       inkscape:connector-curvature="0" />
    <path
       d="m 1,2.625 m 0,3.4744094 m 0.125,0 m 0,1 m -0.125,0 m 0,0.625 m 0.75,0 m 0,-0.125 m 0.5,0 m 0,0.125 m 0.5,0 m 0,-0.125 m 0.5,0 m 0,0.125 m 0.625,0 m 0,-0.625 m -0.125,0 m 0,-0.5 m 0.125,0 m 0,-0.5 m -0.125,0 m 0,-0.5 m 0.125,0 m 0,-0.5 m -0.125,0 m 0,-0.5 m 0.125,0 M 3.875,4.125 m -0.125,0 m 0,-0.5 m 0.125,0 m 0,-0.5 m -0.125,0 m 0,-0.5 m 0.125,0 m 0,-0.5 m -0.125,0 m 0,-0.5 m 0.125,0 M 3.875,1 M 3.25,1 m 0,0.125 m -0.5,0 M 2.75,1 m -0.5,0 m 0,0.125 m -0.5,0 M 1.75,1 M 1,1 m 0,0.625 m 0.125,0 m 0,1"
       style="fill:none;stroke:#ff0000;stroke-width:0.001;stroke-linecap:round;stroke-linejoin:round;stroke-miterlimit:4;stroke-dasharray:none"
       id="face0-interior-7"
       inkscape:connector-curvature="0" />
    <path
       d="m 1,2.625 m 0,3.4744094 m 0.125,0 m 0,1 m -0.125,0 m 0,0.625 m 0.75,0 m 0,-0.125 m 0.5,0 m 0,0.125 m 0.5,0 m 0,-0.125 m 0.5,0 m 0,0.125 m 0.625,0 m 0,-0.625 m -0.125,0 m 0,-0.5 m 0.125,0 m 0,-0.5 m -0.125,0 m 0,-0.5 m 0.125,0 m 0,-0.5 m -0.125,0 m 0,-0.5 m 0.125,0 M 3.875,4.125 m -0.125,0 m 0,-0.5 m 0.125,0 m 0,-0.5 m -0.125,0 m 0,-0.5 m 0.125,0 m 0,-0.5 m -0.125,0 m 0,-0.5 m 0.125,0 M 3.875,1 M 3.25,1 m 0,0.125 m -0.5,0 M 2.75,1 m -0.5,0 m 0,0.125 m -0.5,0 M 1.75,1 M 1,1 m 0,0.625 m 0.125,0 m 0,1"
       style="fill:none;stroke:#00ff00;stroke-width:0.001;stroke-linecap:round;stroke-linejoin:round;stroke-miterlimit:4;stroke-dasharray:none"
       id="path3849"
       inkscape:connector-curvature="0" />
  </g>
  <g
     id="g3923"
     transform="translate(5.999999,-0.5)">
    <path
       d="m 3.875,7.7244094 0,-0.625 -0.125,0 0,-0.5 0.125,0 0,-0.5 -0.125,0 0,-0.5 0.125,0 0,-0.5 -0.125,0 0,-0.5 0.125,0 0,-0.4744094 -0.125,0 0,-0.5 0.125,0 0,-0.5 -0.125,0 0,-0.5 0.125,0 0,-0.5 -0.125,0 0,-0.5 0.125,0 0,-0.625 -0.625,0 0,0.125 -0.5,0 0,-0.125 -0.5,0 0,0.125 -0.5,0 L 1.75,1 1,1 l 0,0.8072047 0.375,0 0,4.04 -0.25,0 0,0.44 0.25,0 0,0.63 -0.375,0 0,0.8072047 0.75,0 0,-0.125 0.5,0 0,0.125 0.5,0 0,-0.125 0.5,0 0,0.125 0.625,0"
       style="fill:none;stroke:#000000;stroke-width:0.001;stroke-linecap:round;stroke-linejoin:round;stroke-miterlimit:4;stroke-dasharray:none"
       id="face0-cut-90"
       inkscape:connector-curvature="0" />
    <path
       d="m 3.875,7.7244094 m 0,-0.625 m -0.125,0 m 0,-0.5 m 0.125,0 m 0,-0.5 m -0.125,0 m 0,-0.5 m 0.125,0 m 0,-0.5 m -0.125,0 m 0,-0.5 m 0.125,0 M 3.875,4.125 m -0.125,0 m 0,-0.5 m 0.125,0 m 0,-0.5 m -0.125,0 m 0,-0.5 m 0.125,0 m 0,-0.5 m -0.125,0 m 0,-0.5 m 0.125,0 M 3.875,1 M 3.25,1 m 0,0.125 m -0.5,0 M 2.75,1 m -0.5,0 m 0,0.125 m -0.5,0 M 1.75,1 M 1,1 m 0,0.8072047 m 0.375,0 m 0,4.04 m -0.25,0 m 0,0.44 m 0.25,0 m 0,0.63 m -0.375,0 m 0,0.8072047 m 0.75,0 m 0,-0.125 m 0.5,0 m 0,0.125 m 0.5,0 m 0,-0.125 m 0.5,0 m 0,0.125"
       style="fill:none;stroke:#ff0000;stroke-width:0.001;stroke-linecap:round;stroke-linejoin:round;stroke-miterlimit:4;stroke-dasharray:none"
       id="face0-interior-9"
       inkscape:connector-curvature="0" />
    <path
       d="m 3.875,7.7244094 m 0,-0.625 m -0.125,0 m 0,-0.5 m 0.125,0 m 0,-0.5 m -0.125,0 m 0,-0.5 m 0.125,0 m 0,-0.5 m -0.125,0 m 0,-0.5 m 0.125,0 M 3.875,4.125 m -0.125,0 m 0,-0.5 m 0.125,0 m 0,-0.5 m -0.125,0 m 0,-0.5 m 0.125,0 m 0,-0.5 m -0.125,0 m 0,-0.5 m 0.125,0 M 3.875,1 M 3.25,1 m 0,0.125 m -0.5,0 M 2.75,1 m -0.5,0 m 0,0.125 m -0.5,0 M 1.75,1 M 1,1 m 0,0.8072047 m 0.375,0 m 0,4.04 m -0.25,0 m 0,0.44 m 0.25,0 m 0,0.63 m -0.375,0 m 0,0.8072047 m 0.75,0 m 0,-0.125 m 0.5,0 m 0,0.125 m 0.5,0 m 0,-0.125 m 0.5,0 m 0,0.125"
       style="fill:none;stroke:#00ff00;stroke-width:0.001;stroke-linecap:round;stroke-linejoin:round;stroke-miterlimit:4;stroke-dasharray:none"
       id="path3915"
       inkscape:connector-curvature="0" />
  </g>
  <g
     id="g3989"
     transform="translate(-0.5000005,6.5)">
    <path
       d="M 1.4711496,1 1.125,1 l 0,0.75 -0.125,0 0,0.5 0.125,0 0,0.5 -0.125,0 0,0.5 0.125,0 0,0.5 0.5,0 0,0.125 0.5,0 0,-0.125 0.3562992,0 0,0.125 0.5,0 0,-0.125 0.5,0 0,-0.5 0.125,0 0,-0.5 -0.125,0 0,-0.5 0.125,0 0,-0.5 -0.125,0 0,-0.75 -0.3461496,0 0,0.125 0.089875,0 0,0.125 -0.34375,0 0,-0.125 0.089875,0 0,-0.125 -1.336,0 0,0.125 0.089875,0 0,0.125 -0.34375,0 0,-0.125 0.089875,0 0,-0.125 m 0.8699802,1.9544653 -0.03798,0.00124 -0.03798,-0.00124 -0.037818,-0.00372 -0.037493,-0.00619 -0.037008,-0.00863 -0.036364,-0.011031 -0.035565,-0.013386 -0.034613,-0.015683 -0.033513,-0.017913 -0.03227,-0.020067 -0.030889,-0.022134 -0.029375,-0.024107 -0.027735,-0.025977 -0.025977,-0.027735 -0.024107,-0.029375 -0.022134,-0.030889 -0.020067,-0.03227 -0.017913,-0.033513 -0.015683,-0.034613 -0.013386,-0.035565 -0.011031,-0.036364 -0.00863,-0.037008 -0.00619,-0.037493 -0.00372,-0.037818 -0.00124,-0.03798 0.00124,-0.03798 0.00372,-0.037818 0.00619,-0.037493 0.00863,-0.037008 0.011031,-0.036364 0.013386,-0.035565 0.015683,-0.034613 0.017913,-0.033513 0.020067,-0.03227 0.022134,-0.030889 0.024107,-0.029375 0.025977,-0.027735 0.027735,-0.025977 0.029375,-0.024107 0.030889,-0.022134 0.03227,-0.020067 0.033513,-0.017913 0.034613,-0.015683 0.035565,-0.013386 0.036364,-0.011031 0.037008,-0.00863 0.037493,-0.00619 0.037818,-0.00372 0.03798,-0.00124 0.03798,0.00124 0.037818,0.00372 0.037493,0.00619 0.037008,0.00863 0.036364,0.011031 0.035565,0.013386 0.034613,0.015683 0.033513,0.017913 0.03227,0.020067 0.030889,0.022134 0.029375,0.024107 0.027735,0.025977 0.025977,0.027735 0.024107,0.029375 0.022134,0.030889 0.020067,0.03227 0.017913,0.033513 0.015683,0.034613 0.013386,0.035565 0.011031,0.036364 0.00863,0.037008 0.00619,0.037493 0.00372,0.037818 0.00124,0.03798 -0.00124,0.03798 -0.00372,0.037818 -0.00619,0.037493 -0.00863,0.037008 -0.011031,0.036364 -0.013386,0.035565 -0.015683,0.034613 -0.017913,0.033513 -0.020067,0.03227 -0.022134,0.030889 -0.024107,0.029375 -0.025977,0.027735 -0.027735,0.025977 -0.029375,0.024107 -0.030889,0.022134 -0.03227,0.020067 -0.033513,0.017913 -0.034613,0.015683 -0.035565,0.013386 -0.036364,0.011031 -0.037008,0.00863 -0.037493,0.00619 -0.037818,0.00372"
       style="fill:none;stroke:#000000;stroke-width:0.001;stroke-linecap:round;stroke-linejoin:round;stroke-miterlimit:4;stroke-dasharray:none"
       id="face0-cut-0"
       inkscape:connector-curvature="0" />
    <path
       d="M 1.4711496,1 M 1.125,1 m 0,0.75 M 1,1.75 m 0,0.5 m 0.125,0 m 0,0.5 M 1,2.75 m 0,0.5 m 0.125,0 m 0,0.5 m 0.5,0 m 0,0.125 m 0.5,0 m 0,-0.125 m 0.3562992,0 m 0,0.125 m 0.5,0 m 0,-0.125 m 0.5,0 m 0,-0.5 m 0.125,0 m 0,-0.5 m -0.125,0 m 0,-0.5 m 0.125,0 m 0,-0.5 m -0.125,0 m 0,-0.75 M 3.1351496,1 m 0,0.125 m 0.089875,0 m 0,0.125 m -0.34375,0 m 0,-0.125 m 0.089875,0 m 0,-0.125 m -1.336,0 m 0,0.125 m 0.089875,0 m 0,0.125 m -0.34375,0 m 0,-0.125 m 0.089875,0 m 0.8699802,1.8294653 m -0.03798,0.00124 m -0.03798,-0.00124 m -0.037818,-0.00372 m -0.037493,-0.00619 m -0.037008,-0.00863 M 2.1164869,2.9248905 M 2.080922,2.9115048 M 2.046309,2.8958218 M 2.012796,2.8779088 M 1.980526,2.8578418 M 1.9496366,2.8357072 M 1.9202618,2.8115999 M 1.8925266,2.785623 M 1.8665497,2.7578878 M 1.8424424,2.728513 M 1.820308,2.6976244 M 1.800241,2.6653544 M 1.782328,2.6318414 M 1.766645,2.5972284 M 1.753259,2.5616634 M 1.742228,2.5252994 M 1.733598,2.4882914 M 1.727408,2.4507984 M 1.723688,2.4129804 M 1.7224409,2.375 m 0.00124,-0.03798 m 0.00372,-0.037818 m 0.00619,-0.037493 m 0.00863,-0.037008 m 0.011031,-0.036364 m 0.013386,-0.035565 m 0.015683,-0.034613 m 0.017913,-0.033513 m 0.020067,-0.03227 M 1.8424349,2.021487 M 1.8665419,1.992112 M 1.8925189,1.964377 M 1.9202539,1.9384 m 0.029375,-0.024107 m 0.030889,-0.022134 m 0.03227,-0.020067 M 2.0463009,1.854179 M 2.0809139,1.838496 M 2.1164789,1.82511 m 0.036364,-0.011031 m 0.037008,-0.00863 m 0.037493,-0.00619 m 0.037818,-0.00372 m 0.03798,-0.00124 m 0.03798,0.00124 m 0.037818,0.00372 m 0.037493,0.00619 m 0.037008,0.00863 m 0.036364,0.011031 m 0.035565,0.013386 m 0.034613,0.015683 m 0.033513,0.017913 m 0.03227,0.020067 m 0.030889,0.022134 M 2.6860299,1.9384 m 0.027735,0.025977 m 0.025977,0.027735 m 0.024107,0.029375 m 0.022134,0.030889 m 0.020067,0.03227 m 0.017913,0.033513 m 0.015683,0.034613 m 0.013386,0.035565 m 0.011031,0.036364 m 0.00863,0.037008 m 0.00619,0.037493 m 0.00372,0.037818 m 0.00124,0.03798 m -0.00124,0.03798 m -0.00372,0.037818 m -0.00619,0.037493 m -0.00863,0.037008 m -0.011031,0.036364 m -0.013386,0.035565 m -0.015683,0.034613 m -0.017913,0.033513 m -0.020067,0.03227 M 2.7638489,2.728513 M 2.7397419,2.757888 M 2.7137649,2.785623 M 2.6860299,2.8116 m -0.029375,0.024107 m -0.030889,0.022134 m -0.03227,0.020067 M 2.5599829,2.895821 M 2.5253699,2.911504 M 2.4898049,2.92489 m -0.036364,0.011031 m -0.037008,0.00863 m -0.037493,0.00619"
       style="fill:none;stroke:#ff0000;stroke-width:0.001;stroke-linecap:round;stroke-linejoin:round;stroke-miterlimit:4;stroke-dasharray:none"
       id="face0-interior-6"
       inkscape:connector-curvature="0" />
    <path
       d="M 1.4711496,1 M 1.125,1 m 0,0.75 M 1,1.75 m 0,0.5 m 0.125,0 m 0,0.5 M 1,2.75 m 0,0.5 m 0.125,0 m 0,0.5 m 0.5,0 m 0,0.125 m 0.5,0 m 0,-0.125 m 0.3562992,0 m 0,0.125 m 0.5,0 m 0,-0.125 m 0.5,0 m 0,-0.5 m 0.125,0 m 0,-0.5 m -0.125,0 m 0,-0.5 m 0.125,0 m 0,-0.5 m -0.125,0 m 0,-0.75 M 3.1351496,1 m 0,0.125 m 0.089875,0 m 0,0.125 m -0.34375,0 m 0,-0.125 m 0.089875,0 m 0,-0.125 m -1.336,0 m 0,0.125 m 0.089875,0 m 0,0.125 m -0.34375,0 m 0,-0.125 m 0.089875,0 m 0.8699802,1.8294653 m -0.03798,0.00124 m -0.03798,-0.00124 m -0.037818,-0.00372 m -0.037493,-0.00619 m -0.037008,-0.00863 M 2.1164869,2.9248905 M 2.080922,2.9115048 M 2.046309,2.8958218 M 2.012796,2.8779088 M 1.980526,2.8578418 M 1.9496366,2.8357072 M 1.9202618,2.8115999 M 1.8925266,2.785623 M 1.8665497,2.7578878 M 1.8424424,2.728513 M 1.820308,2.6976244 M 1.800241,2.6653544 M 1.782328,2.6318414 M 1.766645,2.5972284 M 1.753259,2.5616634 M 1.742228,2.5252994 M 1.733598,2.4882914 M 1.727408,2.4507984 M 1.723688,2.4129804 M 1.7224409,2.375 m 0.00124,-0.03798 m 0.00372,-0.037818 m 0.00619,-0.037493 m 0.00863,-0.037008 m 0.011031,-0.036364 m 0.013386,-0.035565 m 0.015683,-0.034613 m 0.017913,-0.033513 m 0.020067,-0.03227 M 1.8424349,2.021487 M 1.8665419,1.992112 M 1.8925189,1.964377 M 1.9202539,1.9384 m 0.029375,-0.024107 m 0.030889,-0.022134 m 0.03227,-0.020067 M 2.0463009,1.854179 M 2.0809139,1.838496 M 2.1164789,1.82511 m 0.036364,-0.011031 m 0.037008,-0.00863 m 0.037493,-0.00619 m 0.037818,-0.00372 m 0.03798,-0.00124 m 0.03798,0.00124 m 0.037818,0.00372 m 0.037493,0.00619 m 0.037008,0.00863 m 0.036364,0.011031 m 0.035565,0.013386 m 0.034613,0.015683 m 0.033513,0.017913 m 0.03227,0.020067 m 0.030889,0.022134 M 2.6860299,1.9384 m 0.027735,0.025977 m 0.025977,0.027735 m 0.024107,0.029375 m 0.022134,0.030889 m 0.020067,0.03227 m 0.017913,0.033513 m 0.015683,0.034613 m 0.013386,0.035565 m 0.011031,0.036364 m 0.00863,0.037008 m 0.00619,0.037493 m 0.00372,0.037818 m 0.00124,0.03798 m -0.00124,0.03798 m -0.00372,0.037818 m -0.00619,0.037493 m -0.00863,0.037008 m -0.011031,0.036364 m -0.013386,0.035565 m -0.015683,0.034613 m -0.017913,0.033513 m -0.020067,0.03227 M 2.7638489,2.728513 M 2.7397419,2.757888 M 2.7137649,2.785623 M 2.6860299,2.8116 m -0.029375,0.024107 m -0.030889,0.022134 m -0.03227,0.020067 M 2.5599829,2.895821 M 2.5253699,2.911504 M 2.4898049,2.92489 m -0.036364,0.011031 m -0.037008,0.00863 m -0.037493,0.00619"
       style="fill:none;stroke:#00ff00;stroke-width:0.001;stroke-linecap:round;stroke-linejoin:round;stroke-miterlimit:4;stroke-dasharray:none"
       id="path3981"
       inkscape:connector-curvature="0" />
  </g>
  <g
     id="g4055"
     transform="translate(2.4999995,6.5)">
    <path
       d="M 1.4711496,1 1.125,1 l 0,0.75 -0.125,0 0,0.5 0.125,0 0,0.5 -0.125,0 0,0.5 0.125,0 0,0.5 0.5,0 0,0.125 0.5,0 0,-0.125 0.3562992,0 0,0.125 0.5,0 0,-0.125 0.5,0 0,-0.5 0.125,0 0,-0.5 -0.125,0 0,-0.5 0.125,0 0,-0.5 -0.125,0 0,-0.75 -0.3461496,0 0,0.125 0.089875,0 0,0.125 -0.34375,0 0,-0.125 0.089875,0 0,-0.125 -1.336,0 0,0.125 0.089875,0 0,0.125 -0.34375,0 0,-0.125 0.089875,0 0,-0.125 m 0.8699802,1.9544653 -0.03798,0.00124 -0.03798,-0.00124 -0.037818,-0.00372 -0.037493,-0.00619 -0.037008,-0.00863 -0.036364,-0.011031 -0.035565,-0.013386 -0.034613,-0.015683 -0.033513,-0.017913 -0.03227,-0.020067 -0.030889,-0.022134 -0.029375,-0.024107 -0.027735,-0.025977 -0.025977,-0.027735 -0.024107,-0.029375 -0.022134,-0.030889 -0.020067,-0.03227 -0.017913,-0.033513 -0.015683,-0.034613 -0.013386,-0.035565 -0.011031,-0.036364 -0.00863,-0.037008 -0.00619,-0.037493 -0.00372,-0.037818 -0.00124,-0.03798 0.00124,-0.03798 0.00372,-0.037818 0.00619,-0.037493 0.00863,-0.037008 0.011031,-0.036364 0.013386,-0.035565 0.015683,-0.034613 0.017913,-0.033513 0.020067,-0.03227 0.022134,-0.030889 0.024107,-0.029375 0.025977,-0.027735 0.027735,-0.025977 0.029375,-0.024107 0.030889,-0.022134 0.03227,-0.020067 0.033513,-0.017913 0.034613,-0.015683 0.035565,-0.013386 0.036364,-0.011031 0.037008,-0.00863 0.037493,-0.00619 0.037818,-0.00372 0.03798,-0.00124 0.03798,0.00124 0.037818,0.00372 0.037493,0.00619 0.037008,0.00863 0.036364,0.011031 0.035565,0.013386 0.034613,0.015683 0.033513,0.017913 0.03227,0.020067 0.030889,0.022134 0.029375,0.024107 0.027735,0.025977 0.025977,0.027735 0.024107,0.029375 0.022134,0.030889 0.020067,0.03227 0.017913,0.033513 0.015683,0.034613 0.013386,0.035565 0.011031,0.036364 0.00863,0.037008 0.00619,0.037493 0.00372,0.037818 0.00124,0.03798 -0.00124,0.03798 -0.00372,0.037818 -0.00619,0.037493 -0.00863,0.037008 -0.011031,0.036364 -0.013386,0.035565 -0.015683,0.034613 -0.017913,0.033513 -0.020067,0.03227 -0.022134,0.030889 -0.024107,0.029375 -0.025977,0.027735 -0.027735,0.025977 -0.029375,0.024107 -0.030889,0.022134 -0.03227,0.020067 -0.033513,0.017913 -0.034613,0.015683 -0.035565,0.013386 -0.036364,0.011031 -0.037008,0.00863 -0.037493,0.00619 -0.037818,0.00372"
       style="fill:none;stroke:#000000;stroke-width:0.001;stroke-linecap:round;stroke-linejoin:round;stroke-miterlimit:4;stroke-dasharray:none"
       id="face0-cut-8"
       inkscape:connector-curvature="0" />
    <path
       d="M 1.4711496,1 M 1.125,1 m 0,0.75 M 1,1.75 m 0,0.5 m 0.125,0 m 0,0.5 M 1,2.75 m 0,0.5 m 0.125,0 m 0,0.5 m 0.5,0 m 0,0.125 m 0.5,0 m 0,-0.125 m 0.3562992,0 m 0,0.125 m 0.5,0 m 0,-0.125 m 0.5,0 m 0,-0.5 m 0.125,0 m 0,-0.5 m -0.125,0 m 0,-0.5 m 0.125,0 m 0,-0.5 m -0.125,0 m 0,-0.75 M 3.1351496,1 m 0,0.125 m 0.089875,0 m 0,0.125 m -0.34375,0 m 0,-0.125 m 0.089875,0 m 0,-0.125 m -1.336,0 m 0,0.125 m 0.089875,0 m 0,0.125 m -0.34375,0 m 0,-0.125 m 0.089875,0 m 0.8699802,1.8294653 m -0.03798,0.00124 m -0.03798,-0.00124 m -0.037818,-0.00372 m -0.037493,-0.00619 m -0.037008,-0.00863 M 2.1164869,2.9248905 M 2.080922,2.9115048 M 2.046309,2.8958218 M 2.012796,2.8779088 M 1.980526,2.8578418 M 1.9496366,2.8357072 M 1.9202618,2.8115999 M 1.8925266,2.785623 M 1.8665497,2.7578878 M 1.8424424,2.728513 M 1.820308,2.6976244 M 1.800241,2.6653544 M 1.782328,2.6318414 M 1.766645,2.5972284 M 1.753259,2.5616634 M 1.742228,2.5252994 M 1.733598,2.4882914 M 1.727408,2.4507984 M 1.723688,2.4129804 M 1.7224409,2.375 m 0.00124,-0.03798 m 0.00372,-0.037818 m 0.00619,-0.037493 m 0.00863,-0.037008 m 0.011031,-0.036364 m 0.013386,-0.035565 m 0.015683,-0.034613 m 0.017913,-0.033513 m 0.020067,-0.03227 M 1.8424349,2.021487 M 1.8665419,1.992112 M 1.8925189,1.964377 M 1.9202539,1.9384 m 0.029375,-0.024107 m 0.030889,-0.022134 m 0.03227,-0.020067 M 2.0463009,1.854179 M 2.0809139,1.838496 M 2.1164789,1.82511 m 0.036364,-0.011031 m 0.037008,-0.00863 m 0.037493,-0.00619 m 0.037818,-0.00372 m 0.03798,-0.00124 m 0.03798,0.00124 m 0.037818,0.00372 m 0.037493,0.00619 m 0.037008,0.00863 m 0.036364,0.011031 m 0.035565,0.013386 m 0.034613,0.015683 m 0.033513,0.017913 m 0.03227,0.020067 m 0.030889,0.022134 M 2.6860299,1.9384 m 0.027735,0.025977 m 0.025977,0.027735 m 0.024107,0.029375 m 0.022134,0.030889 m 0.020067,0.03227 m 0.017913,0.033513 m 0.015683,0.034613 m 0.013386,0.035565 m 0.011031,0.036364 m 0.00863,0.037008 m 0.00619,0.037493 m 0.00372,0.037818 m 0.00124,0.03798 m -0.00124,0.03798 m -0.00372,0.037818 m -0.00619,0.037493 m -0.00863,0.037008 m -0.011031,0.036364 m -0.013386,0.035565 m -0.015683,0.034613 m -0.017913,0.033513 m -0.020067,0.03227 M 2.7638489,2.728513 M 2.7397419,2.757888 M 2.7137649,2.785623 M 2.6860299,2.8116 m -0.029375,0.024107 m -0.030889,0.022134 m -0.03227,0.020067 M 2.5599829,2.895821 M 2.5253699,2.911504 M 2.4898049,2.92489 m -0.036364,0.011031 m -0.037008,0.00863 m -0.037493,0.00619"
       style="fill:none;stroke:#ff0000;stroke-width:0.001;stroke-linecap:round;stroke-linejoin:round;stroke-miterlimit:4;stroke-dasharray:none"
       id="face0-interior-3"
       inkscape:connector-curvature="0" />
    <path
       d="M 1.4711496,1 M 1.125,1 m 0,0.75 M 1,1.75 m 0,0.5 m 0.125,0 m 0,0.5 M 1,2.75 m 0,0.5 m 0.125,0 m 0,0.5 m 0.5,0 m 0,0.125 m 0.5,0 m 0,-0.125 m 0.3562992,0 m 0,0.125 m 0.5,0 m 0,-0.125 m 0.5,0 m 0,-0.5 m 0.125,0 m 0,-0.5 m -0.125,0 m 0,-0.5 m 0.125,0 m 0,-0.5 m -0.125,0 m 0,-0.75 M 3.1351496,1 m 0,0.125 m 0.089875,0 m 0,0.125 m -0.34375,0 m 0,-0.125 m 0.089875,0 m 0,-0.125 m -1.336,0 m 0,0.125 m 0.089875,0 m 0,0.125 m -0.34375,0 m 0,-0.125 m 0.089875,0 m 0.8699802,1.8294653 m -0.03798,0.00124 m -0.03798,-0.00124 m -0.037818,-0.00372 m -0.037493,-0.00619 m -0.037008,-0.00863 M 2.1164869,2.9248905 M 2.080922,2.9115048 M 2.046309,2.8958218 M 2.012796,2.8779088 M 1.980526,2.8578418 M 1.9496366,2.8357072 M 1.9202618,2.8115999 M 1.8925266,2.785623 M 1.8665497,2.7578878 M 1.8424424,2.728513 M 1.820308,2.6976244 M 1.800241,2.6653544 M 1.782328,2.6318414 M 1.766645,2.5972284 M 1.753259,2.5616634 M 1.742228,2.5252994 M 1.733598,2.4882914 M 1.727408,2.4507984 M 1.723688,2.4129804 M 1.7224409,2.375 m 0.00124,-0.03798 m 0.00372,-0.037818 m 0.00619,-0.037493 m 0.00863,-0.037008 m 0.011031,-0.036364 m 0.013386,-0.035565 m 0.015683,-0.034613 m 0.017913,-0.033513 m 0.020067,-0.03227 M 1.8424349,2.021487 M 1.8665419,1.992112 M 1.8925189,1.964377 M 1.9202539,1.9384 m 0.029375,-0.024107 m 0.030889,-0.022134 m 0.03227,-0.020067 M 2.0463009,1.854179 M 2.0809139,1.838496 M 2.1164789,1.82511 m 0.036364,-0.011031 m 0.037008,-0.00863 m 0.037493,-0.00619 m 0.037818,-0.00372 m 0.03798,-0.00124 m 0.03798,0.00124 m 0.037818,0.00372 m 0.037493,0.00619 m 0.037008,0.00863 m 0.036364,0.011031 m 0.035565,0.013386 m 0.034613,0.015683 m 0.033513,0.017913 m 0.03227,0.020067 m 0.030889,0.022134 M 2.6860299,1.9384 m 0.027735,0.025977 m 0.025977,0.027735 m 0.024107,0.029375 m 0.022134,0.030889 m 0.020067,0.03227 m 0.017913,0.033513 m 0.015683,0.034613 m 0.013386,0.035565 m 0.011031,0.036364 m 0.00863,0.037008 m 0.00619,0.037493 m 0.00372,0.037818 m 0.00124,0.03798 m -0.00124,0.03798 m -0.00372,0.037818 m -0.00619,0.037493 m -0.00863,0.037008 m -0.011031,0.036364 m -0.013386,0.035565 m -0.015683,0.034613 m -0.017913,0.033513 m -0.020067,0.03227 M 2.7638489,2.728513 M 2.7397419,2.757888 M 2.7137649,2.785623 M 2.6860299,2.8116 m -0.029375,0.024107 m -0.030889,0.022134 m -0.03227,0.020067 M 2.5599829,2.895821 M 2.5253699,2.911504 M 2.4898049,2.92489 m -0.036364,0.011031 m -0.037008,0.00863 m -0.037493,0.00619"
       style="fill:none;stroke:#00ff00;stroke-width:0.001;stroke-linecap:round;stroke-linejoin:round;stroke-miterlimit:4;stroke-dasharray:none"
       id="path4047"
       inkscape:connector-curvature="0" />
  </g>
</svg>
