<?xml version="1.0" standalone="no"?>
<!DOCTYPE svg PUBLIC "-//W3C//DTD SVG 1.1//EN" "http://www.w3.org/Graphics/SVG/1.1/DTD/svg11.dtd">
<svg width="4.60629920994in" height="4.8749999970675in"
 viewBox="0 0 4.60629920994 4.8749999970675"
 xmlns="http://www.w3.org/2000/svg" version="1.1"
 xmlns:xlink="http://www.w3.org/1999/xlink">
<desc>Output from Flights of Ideas SVG Sketchup Plugin</desc>

  <path id="face0-cut"
 style="fill:none;stroke:rgb(0,0,00);stroke-width:.001;stroke-miterlimit:4;stroke-dasharray:none;stroke-linejoin:round;stroke-linecap:round"
        d="M 1.47114960581864,1.0 L 1.1249999998725,1.0 L 1.1249999998725,1.749999999235 L 1.0,1.749999999235 L 1.0,2.249999998725 L 1.1249999998725,2.249999998725 L 1.1249999998725,2.749999998215 L 1.0,2.749999998215 L 1.0,3.249999997705 L 1.1249999998725,3.249999997705 L 1.1249999998725,3.749999997195 L 1.6249999993625,3.749999997195 L 1.6249999993625,3.8749999970675 L 2.1249999988525,3.8749999970675 L 2.1249999988525,3.749999997195 L 2.4812992110875,3.749999997195 L 2.4812992110875,3.8749999970675 L 2.9812992105775,3.8749999970675 L 2.9812992105775,3.749999997195 L 3.4812992100675,3.749999997195 L 3.4812992100675,3.249999997705 L 3.60629920994,3.249999997705 L 3.60629920994,2.749999998215 L 3.4812992100675,2.749999998215 L 3.4812992100675,2.249999998725 L 3.60629920994,2.249999998725 L 3.60629920994,1.749999999235 L 3.4812992100675,1.749999999235 L 3.4812992100675,1.0 L 3.13514960412136,1.0 L 3.13514960412136,1.1249999998725 L 3.22502460402968,1.1249999998725 L 3.22502460402968,1.249999999745 L 2.88127460438031,1.249999999745 L 2.88127460438031,1.1249999998725 L 2.97114960428864,1.1249999998725 L 2.97114960428864,1.0 L 1.63514960565136,1.0 L 1.63514960565136,1.1249999998725 L 1.72502460555969,1.1249999998725 L 1.72502460555969,1.249999999745 L 1.38127460591031,1.249999999745 L 1.38127460591031,1.1249999998725 L 1.47114960581864,1.1249999998725 L 1.47114960581864,1.0 M 2.34112976855899,2.95446531760366 L 2.30314960497,2.9557086594225 L 2.265169441381,2.95446531760366 L 2.22735191468331,2.95074061632771 L 2.1898589653321,2.94455050533733 L 2.15285114389251,2.93592149163811 L 2.1164869235375,2.92489052599145 L 2.08092202144135,2.91150484468576 L 2.04630873197488,2.89582176726339 L 2.0127952745575,2.87790845106959 L 1.98052515895896,2.85784160367439 L 1.94963657076843,2.83570715439906 L 1.92026177966267,2.81159988635354 L 1.89252657300689,2.78562303056062 L 1.86654971721396,2.75788782390483 L 1.84244244916844,2.72851303279907 L 1.82030799989311,2.69762444460855 L 1.80024115249792,2.66535432901 L 1.78232783630411,2.63184087159262 L 1.76664475888175,2.59722758212615 L 1.75325907757605,2.56166268003 L 1.74222811192939,2.52529845967499 L 1.73359909823017,2.4882906382354 L 1.72740898723979,2.45079768888419 L 1.72368428596384,2.4129801621865 L 1.72244094414501,2.3749999985975 L 1.72368428596384,2.3370198350085 L 1.72740898723979,2.29920230831081 L 1.73359909823017,2.2617093589596 L 1.74222811192939,2.22470153752001 L 1.75325907757605,2.188337317165 L 1.76664475888175,2.15277241506885 L 1.78232783630411,2.11815912560238 L 1.80024115249792,2.084645668185 L 1.82030799989311,2.05237555258645 L 1.84244244916844,2.02148696439593 L 1.86654971721396,1.99211217329017 L 1.89252657300689,1.96437696663438 L 1.92026177966267,1.93840011084146 L 1.94963657076843,1.91429284279594 L 1.98052515895896,1.89215839352061 L 2.0127952745575,1.87209154612541 L 2.04630873197488,1.85417822993161 L 2.08092202144135,1.83849515250924 L 2.1164869235375,1.82510947120355 L 2.15285114389251,1.81407850555689 L 2.1898589653321,1.80544949185767 L 2.22735191468331,1.79925938086729 L 2.265169441381,1.79553467959133 L 2.30314960497,1.7942913377725 L 2.34112976855899,1.79553467959133 L 2.37894729525669,1.79925938086729 L 2.41644024460791,1.80544949185767 L 2.45344806604749,1.81407850555689 L 2.4898122864025,1.82510947120355 L 2.52537718849865,1.83849515250924 L 2.55999047796512,1.85417822993161 L 2.59350393538249,1.87209154612541 L 2.62577405098105,1.89215839352061 L 2.65666263917156,1.91429284279594 L 2.68603743027733,1.93840011084146 L 2.71377263693311,1.96437696663438 L 2.73974949272603,1.99211217329017 L 2.76385676077157,2.02148696439593 L 2.78599121004689,2.05237555258645 L 2.80605805744209,2.084645668185 L 2.82397137363589,2.11815912560238 L 2.83965445105826,2.15277241506885 L 2.85304013236395,2.188337317165 L 2.86407109801061,2.22470153752001 L 2.87270011170983,2.2617093589596 L 2.87889022270021,2.29920230831081 L 2.88261492397616,2.3370198350085 L 2.88385826579501,2.3749999985975 L 2.88261492397616,2.4129801621865 L 2.87889022270021,2.45079768888419 L 2.87270011170983,2.4882906382354 L 2.86407109801061,2.52529845967499 L 2.85304013236395,2.56166268003 L 2.83965445105826,2.59722758212615 L 2.8239713736359,2.63184087159262 L 2.80605805744209,2.66535432901 L 2.78599121004689,2.69762444460855 L 2.76385676077157,2.72851303279907 L 2.73974949272605,2.75788782390483 L 2.71377263693311,2.78562303056062 L 2.68603743027733,2.81159988635354 L 2.65666263917156,2.83570715439906 L 2.62577405098105,2.85784160367439 L 2.59350393538249,2.87790845106959 L 2.55999047796512,2.89582176726339 L 2.52537718849865,2.91150484468576 L 2.4898122864025,2.92489052599145 L 2.45344806604749,2.93592149163811 L 2.41644024460791,2.94455050533733 L 2.37894729525669,2.95074061632771 L 2.34112976855899,2.95446531760366 "
  />
  <path id="face0-interior"
 style="fill:none;stroke:rgb(255,0,0);stroke-width:.001;stroke-miterlimit:4;stroke-dasharray:none;stroke-linejoin:round;stroke-linecap:round"
        d="M 1.47114960581864,1.0 M 1.1249999998725,1.0 M 1.1249999998725,1.749999999235 M 1.0,1.749999999235 M 1.0,2.249999998725 M 1.1249999998725,2.249999998725 M 1.1249999998725,2.749999998215 M 1.0,2.749999998215 M 1.0,3.249999997705 M 1.1249999998725,3.249999997705 M 1.1249999998725,3.749999997195 M 1.6249999993625,3.749999997195 M 1.6249999993625,3.8749999970675 M 2.1249999988525,3.8749999970675 M 2.1249999988525,3.749999997195 M 2.4812992110875,3.749999997195 M 2.4812992110875,3.8749999970675 M 2.9812992105775,3.8749999970675 M 2.9812992105775,3.749999997195 M 3.4812992100675,3.749999997195 M 3.4812992100675,3.249999997705 M 3.60629920994,3.249999997705 M 3.60629920994,2.749999998215 M 3.4812992100675,2.749999998215 M 3.4812992100675,2.249999998725 M 3.60629920994,2.249999998725 M 3.60629920994,1.749999999235 M 3.4812992100675,1.749999999235 M 3.4812992100675,1.0 M 3.13514960412136,1.0 M 3.13514960412136,1.1249999998725 M 3.22502460402968,1.1249999998725 M 3.22502460402968,1.249999999745 M 2.88127460438031,1.249999999745 M 2.88127460438031,1.1249999998725 M 2.97114960428864,1.1249999998725 M 2.97114960428864,1.0 M 1.63514960565136,1.0 M 1.63514960565136,1.1249999998725 M 1.72502460555969,1.1249999998725 M 1.72502460555969,1.249999999745 M 1.38127460591031,1.249999999745 M 1.38127460591031,1.1249999998725 M 1.47114960581864,1.1249999998725 M 2.34112976855899,2.95446531760366 M 2.30314960497,2.9557086594225 M 2.265169441381,2.95446531760366 M 2.22735191468331,2.95074061632771 M 2.1898589653321,2.94455050533733 M 2.15285114389251,2.93592149163811 M 2.1164869235375,2.92489052599145 M 2.08092202144135,2.91150484468576 M 2.04630873197488,2.89582176726339 M 2.0127952745575,2.87790845106959 M 1.98052515895896,2.85784160367439 M 1.94963657076843,2.83570715439906 M 1.92026177966267,2.81159988635354 M 1.89252657300689,2.78562303056062 M 1.86654971721396,2.75788782390483 M 1.84244244916844,2.72851303279907 M 1.82030799989311,2.69762444460855 M 1.80024115249792,2.66535432901 M 1.78232783630411,2.63184087159262 M 1.76664475888175,2.59722758212615 M 1.75325907757605,2.56166268003 M 1.74222811192939,2.52529845967499 M 1.73359909823017,2.4882906382354 M 1.72740898723979,2.45079768888419 M 1.72368428596384,2.4129801621865 M 1.72244094414501,2.3749999985975 M 1.72368428596384,2.3370198350085 M 1.72740898723979,2.29920230831081 M 1.73359909823017,2.2617093589596 M 1.74222811192939,2.22470153752001 M 1.75325907757605,2.188337317165 M 1.76664475888175,2.15277241506885 M 1.78232783630411,2.11815912560238 M 1.80024115249792,2.084645668185 M 1.82030799989311,2.05237555258645 M 1.84244244916844,2.02148696439593 M 1.86654971721396,1.99211217329017 M 1.89252657300689,1.96437696663438 M 1.92026177966267,1.93840011084146 M 1.94963657076843,1.91429284279594 M 1.98052515895896,1.89215839352061 M 2.0127952745575,1.87209154612541 M 2.04630873197488,1.85417822993161 M 2.08092202144135,1.83849515250924 M 2.1164869235375,1.82510947120355 M 2.15285114389251,1.81407850555689 M 2.1898589653321,1.80544949185767 M 2.22735191468331,1.79925938086729 M 2.265169441381,1.79553467959133 M 2.30314960497,1.7942913377725 M 2.34112976855899,1.79553467959133 M 2.37894729525669,1.79925938086729 M 2.41644024460791,1.80544949185767 M 2.45344806604749,1.81407850555689 M 2.4898122864025,1.82510947120355 M 2.52537718849865,1.83849515250924 M 2.55999047796512,1.85417822993161 M 2.59350393538249,1.87209154612541 M 2.62577405098105,1.89215839352061 M 2.65666263917156,1.91429284279594 M 2.68603743027733,1.93840011084146 M 2.71377263693311,1.96437696663438 M 2.73974949272603,1.99211217329017 M 2.76385676077157,2.02148696439593 M 2.78599121004689,2.05237555258645 M 2.80605805744209,2.084645668185 M 2.82397137363589,2.11815912560238 M 2.83965445105826,2.15277241506885 M 2.85304013236395,2.188337317165 M 2.86407109801061,2.22470153752001 M 2.87270011170983,2.2617093589596 M 2.87889022270021,2.29920230831081 M 2.88261492397616,2.3370198350085 M 2.88385826579501,2.3749999985975 M 2.88261492397616,2.4129801621865 M 2.87889022270021,2.45079768888419 M 2.87270011170983,2.4882906382354 M 2.86407109801061,2.52529845967499 M 2.85304013236395,2.56166268003 M 2.83965445105826,2.59722758212615 M 2.8239713736359,2.63184087159262 M 2.80605805744209,2.66535432901 M 2.78599121004689,2.69762444460855 M 2.76385676077157,2.72851303279907 M 2.73974949272605,2.75788782390483 M 2.71377263693311,2.78562303056062 M 2.68603743027733,2.81159988635354 M 2.65666263917156,2.83570715439906 M 2.62577405098105,2.85784160367439 M 2.59350393538249,2.87790845106959 M 2.55999047796512,2.89582176726339 M 2.52537718849865,2.91150484468576 M 2.4898122864025,2.92489052599145 M 2.45344806604749,2.93592149163811 M 2.41644024460791,2.94455050533733 M 2.37894729525669,2.95074061632771 "
  />
  <path id="face0-interior"
 style="fill:none;stroke:rgb(0,255,0);stroke-width:.001;stroke-miterlimit:4;stroke-dasharray:none;stroke-linejoin:round;stroke-linecap:round"
        d="M 1.47114960581864,1.0 M 1.1249999998725,1.0 M 1.1249999998725,1.749999999235 M 1.0,1.749999999235 M 1.0,2.249999998725 M 1.1249999998725,2.249999998725 M 1.1249999998725,2.749999998215 M 1.0,2.749999998215 M 1.0,3.249999997705 M 1.1249999998725,3.249999997705 M 1.1249999998725,3.749999997195 M 1.6249999993625,3.749999997195 M 1.6249999993625,3.8749999970675 M 2.1249999988525,3.8749999970675 M 2.1249999988525,3.749999997195 M 2.4812992110875,3.749999997195 M 2.4812992110875,3.8749999970675 M 2.9812992105775,3.8749999970675 M 2.9812992105775,3.749999997195 M 3.4812992100675,3.749999997195 M 3.4812992100675,3.249999997705 M 3.60629920994,3.249999997705 M 3.60629920994,2.749999998215 M 3.4812992100675,2.749999998215 M 3.4812992100675,2.249999998725 M 3.60629920994,2.249999998725 M 3.60629920994,1.749999999235 M 3.4812992100675,1.749999999235 M 3.4812992100675,1.0 M 3.13514960412136,1.0 M 3.13514960412136,1.1249999998725 M 3.22502460402968,1.1249999998725 M 3.22502460402968,1.249999999745 M 2.88127460438031,1.249999999745 M 2.88127460438031,1.1249999998725 M 2.97114960428864,1.1249999998725 M 2.97114960428864,1.0 M 1.63514960565136,1.0 M 1.63514960565136,1.1249999998725 M 1.72502460555969,1.1249999998725 M 1.72502460555969,1.249999999745 M 1.38127460591031,1.249999999745 M 1.38127460591031,1.1249999998725 M 1.47114960581864,1.1249999998725 M 2.34112976855899,2.95446531760366 M 2.30314960497,2.9557086594225 M 2.265169441381,2.95446531760366 M 2.22735191468331,2.95074061632771 M 2.1898589653321,2.94455050533733 M 2.15285114389251,2.93592149163811 M 2.1164869235375,2.92489052599145 M 2.08092202144135,2.91150484468576 M 2.04630873197488,2.89582176726339 M 2.0127952745575,2.87790845106959 M 1.98052515895896,2.85784160367439 M 1.94963657076843,2.83570715439906 M 1.92026177966267,2.81159988635354 M 1.89252657300689,2.78562303056062 M 1.86654971721396,2.75788782390483 M 1.84244244916844,2.72851303279907 M 1.82030799989311,2.69762444460855 M 1.80024115249792,2.66535432901 M 1.78232783630411,2.63184087159262 M 1.76664475888175,2.59722758212615 M 1.75325907757605,2.56166268003 M 1.74222811192939,2.52529845967499 M 1.73359909823017,2.4882906382354 M 1.72740898723979,2.45079768888419 M 1.72368428596384,2.4129801621865 M 1.72244094414501,2.3749999985975 M 1.72368428596384,2.3370198350085 M 1.72740898723979,2.29920230831081 M 1.73359909823017,2.2617093589596 M 1.74222811192939,2.22470153752001 M 1.75325907757605,2.188337317165 M 1.76664475888175,2.15277241506885 M 1.78232783630411,2.11815912560238 M 1.80024115249792,2.084645668185 M 1.82030799989311,2.05237555258645 M 1.84244244916844,2.02148696439593 M 1.86654971721396,1.99211217329017 M 1.89252657300689,1.96437696663438 M 1.92026177966267,1.93840011084146 M 1.94963657076843,1.91429284279594 M 1.98052515895896,1.89215839352061 M 2.0127952745575,1.87209154612541 M 2.04630873197488,1.85417822993161 M 2.08092202144135,1.83849515250924 M 2.1164869235375,1.82510947120355 M 2.15285114389251,1.81407850555689 M 2.1898589653321,1.80544949185767 M 2.22735191468331,1.79925938086729 M 2.265169441381,1.79553467959133 M 2.30314960497,1.7942913377725 M 2.34112976855899,1.79553467959133 M 2.37894729525669,1.79925938086729 M 2.41644024460791,1.80544949185767 M 2.45344806604749,1.81407850555689 M 2.4898122864025,1.82510947120355 M 2.52537718849865,1.83849515250924 M 2.55999047796512,1.85417822993161 M 2.59350393538249,1.87209154612541 M 2.62577405098105,1.89215839352061 M 2.65666263917156,1.91429284279594 M 2.68603743027733,1.93840011084146 M 2.71377263693311,1.96437696663438 M 2.73974949272603,1.99211217329017 M 2.76385676077157,2.02148696439593 M 2.78599121004689,2.05237555258645 M 2.80605805744209,2.084645668185 M 2.82397137363589,2.11815912560238 M 2.83965445105826,2.15277241506885 M 2.85304013236395,2.188337317165 M 2.86407109801061,2.22470153752001 M 2.87270011170983,2.2617093589596 M 2.87889022270021,2.29920230831081 M 2.88261492397616,2.3370198350085 M 2.88385826579501,2.3749999985975 M 2.88261492397616,2.4129801621865 M 2.87889022270021,2.45079768888419 M 2.87270011170983,2.4882906382354 M 2.86407109801061,2.52529845967499 M 2.85304013236395,2.56166268003 M 2.83965445105826,2.59722758212615 M 2.8239713736359,2.63184087159262 M 2.80605805744209,2.66535432901 M 2.78599121004689,2.69762444460855 M 2.76385676077157,2.72851303279907 M 2.73974949272605,2.75788782390483 M 2.71377263693311,2.78562303056062 M 2.68603743027733,2.81159988635354 M 2.65666263917156,2.83570715439906 M 2.62577405098105,2.85784160367439 M 2.59350393538249,2.87790845106959 M 2.55999047796512,2.89582176726339 M 2.52537718849865,2.91150484468576 M 2.4898122864025,2.92489052599145 M 2.45344806604749,2.93592149163811 M 2.41644024460791,2.94455050533733 M 2.37894729525669,2.95074061632771 "
  />
</svg>
